# No previous file for Gotland
owner = A98
controller = A98
add_core = A98
culture = vernman
religion = regent_court

hre = yes

base_tax = 4
base_production = 3
base_manpower = 3

trade_goods = grain

capital = ""

is_city = yes






