#395 - Qatar

owner = U07
controller = U07
add_core = U07
add_core = F57
culture = west_sandfang_gnoll
religion = xhazobkult

hre = no

base_tax = 2
base_production = 2
base_manpower = 3

trade_goods = wool

capital = ""

is_city = yes








