#454 - Samarkand

owner = U10
controller = U10
add_core = U10
culture = kheteratan
religion = khetist

hre = no

base_tax = 3
base_production = 4
base_manpower = 3

trade_goods = livestock

capital = ""

is_city = yes








