# No previous file for Sehwan
owner = U05
controller = U05
add_core = U05
add_core = U01
culture = kheteratan
religion = khetist

hre = no

base_tax = 1
base_production = 1
base_manpower = 1

trade_goods = wool

capital = ""

is_city = yes









