#521 - Re'uyel

owner = U18
controller = U18
add_core = U18
culture = bahari
religion = bulwari_sun_cult

base_tax = 8
base_production = 8
base_manpower = 4

trade_goods = cloth
center_of_trade = 1

capital = ""

is_city = yes











add_permanent_province_modifier = {
	name = elven_minority_integrated_small
	duration = -1
}