#527 - Zlatikonu (gold peak)

owner = U14
controller = U14
add_core = U14
add_core = F23
culture = exodus_goblin
religion = goblinic_shamanism


base_tax = 2
base_production = 4
base_manpower = 3

trade_goods = gold

capital = ""

is_city = yes











add_permanent_province_modifier = {
	name = dwarven_minority_oppressed_large
	duration = -1
}