# No previous file for Manado
owner = U20
controller = U20
add_core = U20
culture = surani
religion = bulwari_sun_cult

hre = no

base_tax = 1
base_production = 1
base_manpower = 1

trade_goods = livestock

capital = ""

is_city = yes










