# No previous file for Taiyuan
owner = F28
controller = F28
add_core = F28
culture = east_sandfang_gnoll
religion = xhazobkult

hre = no

base_tax = 1
base_production = 2
base_manpower = 1

trade_goods = wool

capital = ""

is_city = yes
latent_trade_goods = {
	coal
}








