# No previous file for Envermarck
owner = Z24
controller = Z24
add_core = Z24
culture = blue_reachman
religion = regent_court

hre = no

base_tax = 5
base_production = 5
base_manpower = 4

trade_goods = fish

capital = ""

is_city = yes






