irrliam_coastal_expansion = {
	slot = 1
	generic = no
	ai = yes
	potential = {
		OR = {
			tag = F37
			AND = {
				tag = F38
				was_tag = F37
			}
		}
	}
	has_country_shield = yes
	
	irrliam_end_of_an_era = {
		icon = mission_monarch_in_throne_room
		required_missions = { 
		}
		position = 1
		
		trigger = {
			NOT = { has_ruler = "Taelarios I" }
			has_regency = no
			stability = 1
		}
		
		effect = { 	
			add_country_modifier = {
				name = irrliam_newfound_zeal
				duration = 5475
			}
		}
	}
	
	irrliam_control_south_coast = {
		icon = mission_galleys_in_port
		required_missions = { irrliam_end_of_an_era 
		}
		position = 2
	
		provinces_to_highlight = {
			OR = { 	
				province_id = 679
				province_id = 682
				province_id = 680
				province_id = 568
				province_id = 572
			}
			NOT = {
				country_or_non_sovereign_subject_holds = ROOT
			}
		}
		
		trigger = {
			679 = { country_or_non_sovereign_subject_holds = ROOT }
			682 = { country_or_non_sovereign_subject_holds = ROOT }
			680 = { country_or_non_sovereign_subject_holds = ROOT }
			568 = { country_or_non_sovereign_subject_holds = ROOT }
			572 = { country_or_non_sovereign_subject_holds = ROOT }
			num_of_galley = 15
		}
		
		effect = {
			kuz_mountains_area = {
				limit = {
					NOT = { is_core = ROOT }
					NOT = { is_permanent_claim = ROOT }
				}
				add_permanent_claim = ROOT
			}
			
			imuluses_area = {
				limit = {
					NOT = { is_core = ROOT }
					NOT = { is_permanent_claim = ROOT }
				}
				add_permanent_claim = ROOT
			}
			birsartenslib_area = {
				limit = {
					NOT = { is_core = ROOT }
					NOT = { is_permanent_claim = ROOT }
				}
				add_permanent_claim = ROOT
			}
			create_admiral = { tradition = 40 }
			
		}
		
	}
	
	
	irrliam_control_north_coast = {
		icon = mission_conquer_50_development
		required_missions = { irrliam_control_south_coast 
		}
		position = 3
	
		provinces_to_highlight = { 			
			OR = {
				area = kuz_mountains_area
				area = imuluses_area
				area = birsartenslib_area
			}
			NOT = {
				country_or_non_sovereign_subject_holds = ROOT
			}
		}
		
		trigger = { 
			kuz_mountains_area = { 
				type = all
				country_or_non_sovereign_subject_holds = ROOT
			}
			imuluses_area = { 
				type = all
				country_or_non_sovereign_subject_holds = ROOT
			}
			birsartenslib_area = { 
				type = all
				country_or_non_sovereign_subject_holds = ROOT
			}
			accepted_culture = bahari
		}
		
		effect = { 
			bahar_szel_uak_area = {
				limit = {
					NOT = { is_core = ROOT }
					NOT = { is_permanent_claim = ROOT }
				}
				add_permanent_claim = ROOT
			}
			aqatbahar_area = {
				limit = {
					NOT = { is_core = ROOT }
					NOT = { is_permanent_claim = ROOT }
				}
				add_permanent_claim = ROOT
			}
			azka_evran_area = {
				limit = {
					NOT = { is_core = ROOT }
					NOT = { is_permanent_claim = ROOT }
				}
				add_permanent_claim = ROOT
			}
		}
	}
	
	irrliam_troubled_north = {
		icon = mission_conquer_algiers
		required_missions = { irrliam_control_north_coast 
		}
		position = 4
	
		provinces_to_highlight = {
			OR = { 	area = azka_evran_area
				area = aqatbahar_area
				area = bahar_szel_uak_area
			}
			NOT = {
				country_or_non_sovereign_subject_holds = ROOT
			}
		}
		trigger = { 
			bahar_szel_uak_area = { 
				type = all
				country_or_non_sovereign_subject_holds = ROOT
			}
			aqatbahar_area = { 
				type = all
				country_or_non_sovereign_subject_holds = ROOT
			}
			azka_evran_area = { 
				type = all
				country_or_non_sovereign_subject_holds = ROOT
			}
			NOT = { 
				exists = U15
				exists = U13
			}
		}
		effect = { 
			add_country_modifier = {
				name = irrliam_convert1
				duration = 5475
			}
			if = {
				limit = {
					exists = U18
				}
				add_casus_belli = {
					target = U18
					type = cb_bulwari_subjugation
					months = 360
				}
			}
			if = {
				limit = {
					exists = U17
				}
				add_casus_belli = {
					target = U17
					type = cb_bulwari_subjugation
					months = 360
				}
			}
			magairous_area = {
				limit = {
					NOT = { is_core = ROOT }
					NOT = { is_permanent_claim = ROOT }
				}
				add_permanent_claim = ROOT
			}
			medbahar_area = {
				limit = {
					NOT = { is_core = ROOT }
					NOT = { is_permanent_claim = ROOT }
				}
				add_permanent_claim = ROOT
			}
		}
	}
	
	irrliam_gates_of_cannor = {
		icon = mission_control_the_barbary_coast
		required_missions = { irrliam_troubled_north 
		}
		position = 5
	
		provinces_to_highlight = {
			OR = { 	area = crathanor_area
				area = tungr_mountains_area
				area = reuyel_area
			}
			NOT = {
				country_or_non_sovereign_subject_holds = ROOT
			}
		}
		trigger = { 	
			OR = { 
				U18 = { 
					is_subject_of = ROOT 
				}
				U17 = { 
					is_subject_of = ROOT 
				}
			}
			
			tungr_mountains_area = { 
				type = all
				country_or_non_sovereign_subject_holds = ROOT
			}
			reuyel_area = { 
				type = all
				country_or_non_sovereign_subject_holds = ROOT
			}
			crathanor_area = { 
				type = all
				country_or_non_sovereign_subject_holds = ROOT
			}
			
		}
		effect = {
			add_country_modifier = {
				name = more_merchants
				duration = 12775
			}
		}
	}
}

irrliam_river_expansion = {
	slot = 2
	generic = no
	ai = yes
	potential = {
		OR = {
			tag = F37
			AND = {
				tag = F38
				was_tag = F37
			}
		}
	}
	has_country_shield = yes

	irrliam_drive_back_the_gnolls = {
		icon = mission_conquer_air
		required_missions = { irrliam_end_of_an_era 
		}
		position = 2
	
		provinces_to_highlight = {
			OR = {	
				province_id = 683
				province_id = 685
				province_id = 597
			}
			NOT = {
				country_or_non_sovereign_subject_holds = ROOT
			}
		}
		trigger = {
			683 = {
				country_or_non_sovereign_subject_holds = ROOT
			}
			685 = {
				country_or_non_sovereign_subject_holds = ROOT
				has_building = fort_15th
			}
			597 = {
				country_or_non_sovereign_subject_holds = ROOT
			}
		}
		effect = {
			garpix_ukraz_area = {
				limit = {
					NOT = { is_core = ROOT }
					NOT = { is_permanent_claim = ROOT }
				}
				add_permanent_claim = ROOT
			}
			yrkur_area = {
				limit = {
					NOT = { is_core = ROOT }
					NOT = { is_permanent_claim = ROOT }
				}
				add_permanent_claim = ROOT
			}
			grixekyr_area = {
				limit = {
					NOT = { is_core = ROOT }
					NOT = { is_permanent_claim = ROOT }
				}
				add_permanent_claim = ROOT
			}
			garpix_tluukt_area = {
				limit = {
					NOT = { is_core = ROOT }
					NOT = { is_permanent_claim = ROOT }
				}
				add_permanent_claim = ROOT
			}
			
		}
	}
	
	irrliam_light_of_liberation = {
		icon = mission_conquer_timbuktu
		required_missions = { irrliam_drive_back_the_gnolls 
		}
		position = 3
		provinces_to_highlight = {
			OR = {	
				area = garpix_ukraz_area
				area = yrkur_area
				area = grixekyr_area
				area = garpix_tluukt_area
			}
			NOT = {
				country_or_non_sovereign_subject_holds = ROOT
			}
		}
		trigger = {
			garpix_ukraz_area = { 
				type = all
				country_or_non_sovereign_subject_holds = ROOT
			}
			yrkur_area = { 
				type = all
				country_or_non_sovereign_subject_holds = ROOT
			}
			grixekyr_area = { 
				type = all
				country_or_non_sovereign_subject_holds = ROOT
			}
			garpix_tluukt_area = { 
				type = all
				country_or_non_sovereign_subject_holds = ROOT
			}
			if = { 
				limit = { has_dlc = "Golden Century" }
				688 = { NOT = { trade_goods = slaves } }
			}
			religious_unity = 1
		}
		
		effect = {	
			if = {
				limit = {
					exists = F30
				}
				add_casus_belli = {
					target = F30
					type = cb_bulwari_subjugation
					months = 360
				}
			}
			if = {
				limit = {
					exists = F39
				}
				add_casus_belli = {
					target = F39
					type = cb_bulwari_subjugation
					months = 360
				}
			}
			if = {
				limit = {
					exists = F36
				}
				add_casus_belli = {
					target = F36
					type = cb_bulwari_subjugation
					months = 360
				}
			}
			if = {
				limit = {
					exists = F41
				}
				add_casus_belli = {
					target = F41
					type = cb_bulwari_subjugation
					months = 360
				}
			}
			else = {
				kumarkand_area = {
				limit = {
					NOT = { is_core = ROOT }
					NOT = { is_permanent_claim = ROOT }
				}
				add_claim = ROOT
				}
				bulwar_area = {
					limit = {
						NOT = { is_core = ROOT }
						NOT = { is_permanent_claim = ROOT }
					}
					add_claim = ROOT
				}
				harklum_area = {
					limit = {
						NOT = { is_core = ROOT }
						NOT = { is_permanent_claim = ROOT }
					}
					add_claim = ROOT
				}
			}	
		}
	}
	irrliam_ashes_of_the_phoenix = {
		icon = mission_golden_century
		required_missions = { irrliam_light_of_liberation 
		}
		position = 4
		provinces_to_highlight = {
			OR = {	
				area = kumarkand_area
				area = bulwar_area
				area = harklum_area
			}
			NOT = {
				country_or_non_sovereign_subject_holds = ROOT
			}
		}
		trigger = {
			kumarkand_area = { 
				type = all
				country_or_non_sovereign_subject_holds = ROOT
			}
			bulwar_area = { 
				type = all
				country_or_non_sovereign_subject_holds = ROOT
			}
			harklum_area = { 
				type = all
				country_or_non_sovereign_subject_holds = ROOT
			}
			all_subject_country = {
				is_subject_of = ROOT
				NOT = { liberty_desire = 50 }
			}
			vassal = 4		
		}
		effect = {	
			west_naza_area = {
				limit = {
					NOT = { is_core = ROOT }
					NOT = { is_permanent_claim = ROOT }
				}
				add_permanent_claim = ROOT
			}
			south_naza_area = {
				limit = {
					NOT = { is_core = ROOT }
					NOT = { is_permanent_claim = ROOT }
				}
				add_permanent_claim = ROOT
			}
			sareyand_area = {
				limit = {
					NOT = { is_core = ROOT }
					NOT = { is_permanent_claim = ROOT }
				}
				add_permanent_claim = ROOT
			}
		}
	}
	irrliam_phoenix_rising = {
		icon = mission_empire
		required_missions = { 
			irrliam_ashes_of_the_phoenix
			irrliam_troubled_north 
		}
		position = 5
		
		provinces_to_highlight = {
			superregion = bulwar_superregion
			NOT = {
				owner = { 
					OR = { 	
						OR = { 
							tag = F37
							tag = F38
						}
						NOT = { primary_culture = sun_elf } 
					} 
				}
			}
		}
		
		trigger = {
			adm_power = 150
			dip_power = 150
			mil_power = 150
			custom_trigger_tooltip = {
				tooltip = irrliam_phoenix_rising_tt	
				bulwar_superregion = {
					type = all
					owner = { 
						OR = { 	
							OR = { 
								tag = F37
								tag = F38
							}
							NOT = { primary_culture = sun_elf } 
						} 
					}
				}
			}
			estate_loyalty = {
				estate = estate_burghers
				loyalty = 60
			}
			estate_loyalty = {
				estate = estate_church
				loyalty = 60
			}
		}
		effect = { 
			add_adm_power = -150
			add_dip_power = -150
			add_mil_power = -150
			add_country_modifier = {
				name = irrliam_phoenix_rising
				duration = -1
			}
		}
	}
}

irrliam_big_development = {
	slot = 3
	generic = no
	ai = yes
	potential = {
		OR = {
			tag = F37
			AND = {
				tag = F38
				was_tag = F37
			}
		}
	}
	has_country_shield = yes

	irrliam_vassal_loyalty = {
		icon = mission_alliances
		required_missions = { 
		}
		position = 1
		trigger = { 
			all_subject_country = {
				is_subject_of = ROOT
				NOT = { liberty_desire = 50 }
			}
		}
		effect = { 
			add_country_modifier = {
			name = irrliam_vassal_loyalty
				duration = 7300
			}
			568 = { add_claim = ROOT }
			572 = { add_claim = ROOT }
		}
	}
	irrliam_land_route = {
		icon = mission_bedouins
		required_missions = { irrliam_vassal_loyalty 
		}
		position = 2
		provinces_to_highlight = {
			OR = { 
				province_id = 568
				province_id = 572
			}
			NOT = {
				country_or_non_sovereign_subject_holds = ROOT
			}
		}
		trigger = {
			568 = {
				country_or_non_sovereign_subject_holds = ROOT
			}
			572 = {
				country_or_non_sovereign_subject_holds = ROOT
			}
		}
		effect = {
			outer_drolas_area = {
				limit = {
					NOT = { is_core = ROOT }
					NOT = { is_permanent_claim = ROOT }
				}
				add_permanent_claim = ROOT
			}
			if = {
				limit = {
					exists = F32
				}
				add_casus_belli = {
					target = F32
					type = cb_vassalize_mission
					months = 360
				}
			}	
		}
	}
	irrliam_brasan = {
		icon = mission_dominate_genoa
		required_missions = { irrliam_land_route 
		}
		position = 3
		trigger = { 
			treasury = 150
			F24 = { 
				is_subject_of = ROOT 
			}
			F24 = {
				has_opinion = {
					who = ROOT
					value = 200
				}
				owns_core_province = 565
				565 = { 
					renaissance = 100
					has_tax_building_trigger = yes
				}
			}	
		}
		effect = {
			add_treasury = -150
			565 = {
				add_base_production = 3
				add_base_tax = 3
				#add_province_triggered_modifier = irrliam_brasan_development 
				add_province_modifier = {
					name = irrliam_brasan_development
					duration = -1
				}
			}
		}
	}
	irrliam_bulwar = {
		icon = mission_mosque
		required_missions = { irrliam_brasan 
		}
		position = 4
		trigger = { 
			treasury = 175
			F39 = { 
				is_subject_of = ROOT 
			}
			F39 = {
				has_opinion = {
					who = ROOT
					value = 175
				}
				owns_core_province = 601
				601 = { has_building = courthouse }
			}
		}
		effect = {
			add_treasury = -175
			601 = { 
				add_base_production = 4
				add_base_tax = 2
			}
		}
	}
	irrliam_eastern_development = {
		icon = mission_colonial
		required_missions = { irrliam_bulwar 
		}
		position = 5
		trigger = { 
			treasury = 150
			F36 = { 
				is_subject_of = ROOT 
			}
			F36 = {
				has_opinion = {
					who = ROOT
					value = 175
				}
			}
			harklum_area = { 
				type = all
				country_or_non_sovereign_subject_holds = ROOT
				has_tax_building_trigger = yes
				has_production_building_trigger = yes
			}
		}
		effect = {
			add_treasury = -150
			harklum_area = {
				add_base_tax = 2
				add_base_production = 2
			}
		}
	}
}

irrliam_small_development = {
	slot = 4
	generic = no
	ai = yes
	potential = {
		OR = {
			tag = F37
			AND = {
				tag = F38
				was_tag = F37
			}
		}
	}
	has_country_shield = yes
	
	irrliam_kalib = {
		icon = mission_develop_alhambra
		required_missions = { 
		}
		position = 1

		trigger = { 
			treasury = 50
			F44 = { 
				is_subject_of = ROOT 
			}
			F44 = {
				has_opinion = {
					who = ROOT
					value = 175
				}
				owns_core_province = 599
				599 = { has_production_building_trigger = yes }
				owns_core_province = 600
			}
		}
		effect = {
			add_treasury = -50
			599 = { add_base_production = 3 }
			600 = { add_base_production = 3 }
		}
	}
	irrliam_zansap = {
		icon = mission_arabian_fort
		required_missions = { 
		}
		position = 2
		trigger = { 
			F43 = { 
				is_subject_of = ROOT 
			}
			F43 = {
				has_opinion = {
					who = ROOT
					value = 175
				}
				owns_core_province = 596
				owns_core_province = 597
				owns_core_province = 598
				596 = { has_manpower_building_trigger = yes }
				597 = { has_manpower_building_trigger = yes }
				598 = { has_manpower_building_trigger = yes }
			}
		}
		effect = {
			596 = { add_base_manpower = 2 }
			597 = { add_base_manpower = 2 }
			598 = { add_base_manpower = 2 }
		}
	}
	irrliam_drolakand = {
		icon = mission_invade_island
		required_missions = { irrliam_land_route 
		}
		position = 3

		trigger = { 
			treasury = 50
			OR = { 
				advisor = naval_reformer
				advisor = trader
			}
			F32 = { 
				is_subject_of = ROOT 
			}
			F32 = {
				has_opinion = {
					who = ROOT
					value = 175
				}
				owns_core_province = 580
				owns_core_province = 582
			}
		}
		effect = {
			add_treasury = -50
			580 = {
				add_base_production = 2
				change_trade_goods = naval_supplies
			}
			582 = {
				add_base_production = 2
				change_trade_goods = naval_supplies
			}
		}
	}
	irrliam_bahar = {
			icon = mission_conquer_alexandria
			required_missions = { irrliam_drolakand 
			}
			position = 4
			provinces_to_highlight = {
			OR = { 	
				area = crathanor_area
				area = tungr_mountains_area
				area = reuyel_area
			}
			NOT = {
				country_or_non_sovereign_subject_holds = ROOT
			}
		}
		trigger = { 
			treasury = 200
			OR = { 
				U18 = { 
					is_subject_of = ROOT
					reuyel_area = { 
						type = all
						country_or_non_sovereign_subject_holds = U18
					} 
				}
				U17 = { 
					is_subject_of = ROOT 
					crathanor_area = { 
						type = all
						country_or_non_sovereign_subject_holds = U17
					}
				}
			}
		
		}
		effect = {
			add_treasury = -200
			if = {
				limit = {
					reuyel_area = { 
						type = all
						country_or_non_sovereign_subject_holds = ROOT
					}
				}
				reuyel_area = { 
					add_base_manpower = 1
					add_base_production = 1
					add_base_tax = 1
				}
			}
			if = {
				limit = {
					crathanor_area = { 
						type = all
						country_or_non_sovereign_subject_holds = ROOT
					}
				}
				crathanor_area = { 
					add_base_manpower = 1
					add_base_production = 1
					add_base_tax = 1
				}
			}
		}
	}
	irrliam_kumarkand = {
		icon = mission_conquer_timbuktu
		required_missions = { irrliam_bulwar 
		}
		position = 5
		
		trigger = { 
			treasury = 100
			F30 = { 
				is_subject_of = ROOT 
			}
			F30 = {
				has_opinion = {
					who = ROOT
					value = 175
				}
				kumarkand_area = {
					type = all
					country_or_non_sovereign_subject_holds = ROOT
					has_production_building_trigger = yes
				}
			}
		}
		effect = {
			add_treasury = -100
			kumarkand_area = {
				add_base_tax = 2
				add_base_manpower = 2
			}
		}
	}
}

irrliam_trade = {
	slot = 5
	generic = no
	ai = yes
	potential = {
		OR = {
			tag = F37
			AND = {
				tag = F38
				was_tag = F37
			}
		}
	}
	has_country_shield = yes
	irrliam_anzabad = {
		icon = mission_control_surat
		required_missions = { 
		}
		position = 1
		trigger = { 
			treasury = 75
			F40 = { 
				is_subject_of = ROOT 
			}
			F40 = {
				has_opinion = {
					who = ROOT
					value = 175
				}
				owns_core_province = 559
				owns_core_province = 560
				has_divert_trade = yes
			}
		}
		effect = { 	
			add_treasury = -75
			559 = { 
				add_base_tax = 2
				add_base_production = 2
			}
			560 = {
				add_base_tax = 2
				add_base_production = 2
			}
		}
	}
	irrliam_deals_with_merchants = {
		icon = mission_high_income
		required_missions = { 
		}
		position = 2
		trigger = {
			estate_influence = {
				estate = estate_burghers
				influence = 35
			}
			estate_loyalty = {
				estate = estate_burghers
				loyalty = 60
			}
		}
		effect = {
			add_mercantilism = 10
		}
	}
	irrliam_faith_and_coin = {
		icon = mission_war_chest
		required_missions = { irrliam_deals_with_merchants 
		}
		position = 3
		trigger = { 
			OR = {
				temple = 15
				cathedral = 10
			}
			OR = {
				marketplace = 15
				trade_depot = 10
			}
		}
		effect = {
			add_country_modifier = {
			name = irrliam_trade
				duration = 7300
			}
		}
	}
	irrliam_establish_total_control = {
		icon = mission_hands_praying
		required_missions = { irrliam_faith_and_coin 
		}
		position = 4

		trigger = { 
			601 = {
				is_strongest_trade_power = ROOT
			}
			1312 = {
				is_strongest_trade_power = ROOT
			}
			1309 = {
				is_strongest_trade_power = ROOT
			}
		}
		effect = { 
			add_country_modifier = {
			name = irrliam_convert2
				duration = -1
			}
		}	
	}
	irrliam_capital_worth_an_empire = {
		icon = mission_early_modern_university
		required_missions = { 
		}
		position = 5
		trigger = { 	
			owns_core_province = 601
			owns_core_province = 565
			owns_core_province = 595
			owns_core_province = 560
			owns_core_province = 599
			treasury = 300
			adm_power = 100
		}
		effect = { 
			add_adm_power = -100
			add_treasury = -300
			country_event = { id = irrliam_flavour.1 }
		}
	}
}