sareyand_0 = {
	slot = 1
	generic = no
	ai = yes
	has_country_shield = yes
	
	potential = {
		OR = {
			tag = F25
			AND = {
				tag = F38
				was_tag = F25
			}
		}
	}
	
	sareyand_0_patronage_of_the_landlords = {
		icon = mission_noble_council
		ai = yes
		position = 1
		
		required_missions = {
			
		}
		
		trigger = {
			estate_loyalty = {
				estate = estate_nobles
				loyalty = 60
			}
		}
		
		effect = {
			north_naza_area = {
				limit = {
					NOT = {
						owned_by = ROOT
						is_core = ROOT
					}
				}
				add_permanent_claim = ROOT
			}
			add_country_modifier = {
				name = sareyand_cooperative_landlords
				duration = 7300
			}
		}
	}
	
	sareyand_0_sunshine_manors = {
		icon = mission_secure_khandesh
		ai = yes
		position = 2
		
		required_missions = {
			sareyand_0_patronage_of_the_landlords
		}
		
		provinces_to_highlight = {
			OR = {
				area = east_naza_area
				area = south_naza_area
				area = sareyand_area
				area = avamezan_area
			}
		}
		
		trigger = {
			development_in_provinces = {
				value = 110
				OR = {
					area = east_naza_area
					area = south_naza_area
					area = sareyand_area
					area = avamezan_area
				}
			}
		}
		
		effect = {
			add_country_modifier = {
				name = sareyand_new_manors
				duration = 9125
			}
		}
	}
	
	sareyand_0_rebuild_the_ash_palace = {
		icon = mission_mahmudabad
		ai = yes
		position = 3
		
		required_missions = {
			sareyand_0_sunshine_manors
		}
		
		trigger = {
			625 = { development = 40 }
			treasury = 500
		}
		
		effect = {
			add_treasury = -500
			625 = {
				add_province_triggered_modifier = sareyand_the_ash_palace
				add_province_modifier = {
					name = sareyand_rebuilding_the_ash_palace
					duration = 730
				}
				tooltip = {
					add_permanent_province_modifier = {
						name = sareyand_the_ash_palace_dummy
						duration = -1
					}
				}
			}
		}
	}
	
	sareyand_0_the_bulwark_of_the_sun = {
		icon = mission_fortify_mandu
		ai = yes
		position = 4
		
		required_missions = {
			sareyand_1_the_mountains_of_the_sun
		}
		
		trigger = {
			682 = {
				owned_by = ROOT
				fort_level = 4
				base_manpower = 5
			}
		}
		
		effect = {
			682 = {
				add_permanent_province_modifier = {
					name = sareyand_bulwark_of_the_sun
					duration = -1
				}
			}
		}
	}
	
	sareyand_0_the_phoenix_citadel = {
		icon = mission_conquer_mewar
		ai = yes
		position = 5
		
		required_missions = {
			sareyand_0_the_bulwark_of_the_sun
		}
		
		trigger = {
			682 = {
				owned_by = ROOT
				fort_level = 6
				has_building = training_fields
				base_manpower = 10
			}
		}
		
		effect = {
			682 = {
				remove_province_modifier = sareyand_bulwark_of_the_sun
				add_permanent_province_modifier = {
					name = sareyand_the_phoenix_citadel
					duration = -1
				}
			}
		}
	}
	
}




sareyand_1 = {
	slot = 2
	generic = no
	ai = yes
	has_country_shield = yes
	
	potential = {
		OR = {
			tag = F25
			AND = {
				tag = F38
				was_tag = F25
			}
		}
	}
	
	sareyand_1_around_lake_naza = {
		icon = mission_seize_the_bengal_coast
		ai = yes
		position = 2
		
		required_missions = {
			sareyand_0_patronage_of_the_landlords
		}
		
		provinces_to_highlight = {
			OR = {
				area = north_naza_area
			}
			NOT = {
				country_or_non_sovereign_subject_holds = ROOT
			}
		}
		
		trigger = {
			north_naza_area = {
				type = all
				country_or_non_sovereign_subject_holds = ROOT
			}
		}
		
		effect = {
			add_country_modifier = {
				name = sareyand_food_surplus
				duration = 9125
			}
		}
	}
	
	sareyand_1_the_mountains_of_the_sun = {
		icon = prosper_in_piedmont
		ai = yes
		position = 3
		
		required_missions = {
			sareyand_2_sun_elven_protection
		}
		
		provinces_to_highlight = {
			OR = {
				area = sur_mountains_area
				area = garpix_ukraz_area
				area = garpix_tluukt_area
				area = grixekyr_area
				area = yrkur_area
				province_id = 597
			}
			NOT = {
				country_or_non_sovereign_subject_holds = ROOT
			}
		}
		
		trigger = {
			sur_mountains_area = {
				type = all
				country_or_non_sovereign_subject_holds = ROOT
			}
			garpix_ukraz_area = {
				type = all
				country_or_non_sovereign_subject_holds = ROOT
			}
			garpix_tluukt_area = {
				type = all
				country_or_non_sovereign_subject_holds = ROOT
			}
			grixekyr_area = {
				type = all
				country_or_non_sovereign_subject_holds = ROOT
			}
			yrkur_area = {
				type = all
				country_or_non_sovereign_subject_holds = ROOT
			}
			597 = {
				country_or_non_sovereign_subject_holds = ROOT
			}
		}
		
		effect = {
			682 = {
				change_religion = bulwari_sun_cult
				change_culture = sun_elf
				add_province_modifier = {
					name = sareyand_military_colony
					duration = 3650
				}
			}
			zansap_area = {
				limit = {
					NOT = {
						owned_by = ROOT
						is_core = ROOT
					}
				}
				add_claim = ROOT
			}
			middle_suran_area = {
				limit = {
					NOT = {
						owned_by = ROOT
						is_core = ROOT
					}
				}
				add_claim = ROOT
			}
			bulwar_area = {
				limit = {
					NOT = {
						owned_by = ROOT
						is_core = ROOT
					}
				}
				add_claim = ROOT
			}
		}
	}
	
	sareyand_1_the_heart_of_bulwar = {
		icon = mission_conquer_sindh_mer
		ai = yes
		position = 4
		
		required_missions = {
			sareyand_1_the_mountains_of_the_sun
		}
		
		provinces_to_highlight = {
			OR = {
				province_id = 596
				area = middle_suran_area
				area = bulwar_area
			}
			NOT = {
				country_or_non_sovereign_subject_holds = ROOT
			}
		}
		
		trigger = {
			zansap_area = {
				type = all
				country_or_non_sovereign_subject_holds = ROOT
			}
			middle_suran_area = {
				type = all
				country_or_non_sovereign_subject_holds = ROOT
			}
			bulwar_area = {
				type = all
				country_or_non_sovereign_subject_holds = ROOT
			}
		}
		
		effect = {
			outer_brasan_area = {
				limit = {
					NOT = {
						owned_by = ROOT
						is_core = ROOT
					}
				}
				add_claim = ROOT
			}
			lower_brasan_area = {
				limit = {
					NOT = {
						owned_by = ROOT
						is_core = ROOT
					}
				}
				add_claim = ROOT
			}
			upper_brasan_area = {
				limit = {
					NOT = {
						owned_by = ROOT
						is_core = ROOT
					}
				}
				add_claim = ROOT
			}
		}
	}
	
	sareyand_1_the_length_of_the_suran = {
		icon = mission_magadna_and_varanasi
		ai = yes
		position = 5
		
		required_missions = {
			sareyand_1_the_heart_of_bulwar
		}
		
		provinces_to_highlight = {
			OR = {
				area = outer_brasan_area
				area = lower_brasan_area
				area = upper_brasan_area
			}
			NOT = {
				country_or_non_sovereign_subject_holds = ROOT
			}
		}
		
		trigger = {
			outer_brasan_area = {
				type = all
				country_or_non_sovereign_subject_holds = ROOT
			}
			lower_brasan_area = {
				type = all
				country_or_non_sovereign_subject_holds = ROOT
			}
			upper_brasan_area = {
				type = all
				country_or_non_sovereign_subject_holds = ROOT
			}
		}
		
		effect = {
			add_country_modifier = {
				name = sareyand_control_over_the_suran
				duration = 5475
			}
		}
	}
	
}




sareyand_2 = {
	slot = 3
	generic = no
	ai = yes
	has_country_shield = yes
	
	potential = {
		OR = {
			tag = F25
			AND = {
				tag = F38
				was_tag = F25
			}
		}
	}
	
	sareyand_2_recover_the_suran_plain = {
		icon = mission_marathi_fiefs
		ai = yes
		position = 1
		
		required_missions = {
			
		}
		
		provinces_to_highlight = {
			OR = {
				province_id = 690
				province_id = 636
				province_id = 637
				area = upper_suran_area
			}
			NOT = {
				country_or_non_sovereign_subject_holds = ROOT
			}
		}
		
		trigger = {
			690 = { country_or_non_sovereign_subject_holds = ROOT }
			636 = { country_or_non_sovereign_subject_holds = ROOT }
			637 = { country_or_non_sovereign_subject_holds = ROOT }
			641 = { country_or_non_sovereign_subject_holds = ROOT }
			F45 = {
				exists = yes
				is_subject_of = ROOT
				owns = 638
				owns = 639
				owns = 640
			}
		}
		
		effect = {
			add_country_modifier = {
				name = sareyand_slayer_of_beasts
				duration = 3650
			}
		}
	}
	
	sareyand_2_sun_elven_protection = {
		icon = mission_gharbianss
		ai = yes
		position = 2
		
		required_missions = {
			sareyand_2_recover_the_suran_plain
		}
		
		trigger = {
			calc_true_if = {
				all_subject_country = {
					is_subject_of = ROOT
					culture_group = bulwari
					NOT = { liberty_desire = 30 }
					NOT = { num_of_cities = 4 }
				}
				amount = 4
			}
		}
		
		effect = {
			add_country_modifier = {
				name = sareyand_protector_of_the_light
				duration = 36500
			}
		}
	}
	
	sareyand_2_gno_more_gnolls = {
		icon = mission_conquer_timbuktu
		ai = yes
		position = 3
		
		required_missions = {
			sareyand_2_sun_elven_protection
		}
		
		provinces_to_highlight = {
			owner = { culture_group = gnollish }
			region = far_bulwar_region
		}
		
		trigger = {
			NOT = {
				far_bulwar_region = {
					owner = { culture_group = gnollish }
				}
			}
		}
		
		effect = {
			custom_tooltip = sareyand_claims_on_jaddari_tt
			hidden_effect = {
				far_salahad_region = {
					limit = {
						OR = {
							owned_by = F46
							culture = desert_elf
						}
					}
					add_permanent_claim = ROOT
				}
			}
		}
	}
	
	sareyand_2_the_gate_of_the_east = {
		icon = mission_found_udaipur
		ai = yes
		position = 4
		
		required_missions = {
			sareyand_2_gno_more_gnolls
		}
		
		trigger = {
			638 = {
				trade_share = {
					country = ROOT
					share = 70
				}
			}
		}
		
		effect = {
			add_country_modifier = {
				name = sareyand_the_gate_of_the_east
				duration = 9125
			}
		}
	}
	
	sareyand_2_trade_with_rahen = {
		icon = mission_dominate_persian_gulf
		ai = yes
		position = 5
		
		required_missions = {
			sareyand_2_the_gate_of_the_east
		}
		
		trigger = {
			2901 = { is_strongest_trade_power = ROOT }
			1350 = { is_strongest_trade_power = ROOT }
		}
		
		effect = {
			add_country_modifier = {
				name = sareyand_the_riches_of_the_east
				duration = 9125
			}
		}
	}
	
}




sareyand_3 = {
	slot = 4
	generic = no
	ai = yes
	has_country_shield = yes
	
	potential = {
		OR = {
			tag = F25
			AND = {
				tag = F38
				was_tag = F25
			}
		}
	}
	
	sareyand_3_restore_the_akalate_of_azka_sur = {
		icon = mission_reclaim_dehli
		ai = yes
		position = 2
		
		required_missions = {
			sareyand_2_recover_the_suran_plain
		}
		
		trigger = {
			U20 = {
				is_subject_of = ROOT
				NOT = { liberty_desire = 30 }
			}
		}
		
		effect = {
			create_march = U20
			U20 = {
				change_primary_culture = sun_elf
				add_accepted_culture = surani
				define_ruler = {
					dynasty = ROOT
					culture = ROOT
					religion = ROOT
				}
				jikarzax_area = {
					add_core = PREV
				}
				grixek_area = {
					add_core = PREV
				}
			}
		}
	}
	
	sareyand_3_the_true_lords_of_bulwar = {
		icon = mission_restore_faith_in_the_throne
		ai = yes
		position = 3
		
		required_missions = {
			sareyand_2_sun_elven_protection
			sareyand_3_restore_the_akalate_of_azka_sur
		}
		
		trigger = {
			is_at_war = no
			calc_true_if = {
				all_subject_country = {
					is_subject_of = ROOT
					culture_group = bulwari
					NOT = { liberty_desire = 1 }
				}
				amount = 4
			}
		}
		
		effect = {
			every_subject_country = {
				limit = {
					culture_group = bulwari
					NOT = { liberty_desire = 1 }
				}
				ROOT = { create_march = PREV }
				change_primary_culture = sun_elf
				define_ruler = {
					dynasty = ROOT
					culture = ROOT
					religion = ROOT
				}
			}
			add_country_modifier = {
				name = sareyand_the_true_lord_of_bulwar
				duration = -1
			}
		}
	}
	
	sareyand_3_the_rogue_legion = {
		icon = mission_conquer_kannauj
		ai = yes
		position = 4
		
		required_missions = {
			sareyand_2_gno_more_gnolls
		}
		
		provinces_to_highlight = {
			culture = desert_elf
			NOT = { religion = bulwari_sun_cult }
		}
		
		trigger = {
			custom_trigger_tooltip = {
				tooltip = sareyand_3_the_rogue_legion_tt
				NOT = {
					any_province = {
						culture = desert_elf
						NOT = { religion = bulwari_sun_cult }
					}
				}
			}
		}
		
		effect = {
			custom_tooltip = sareyand_desert_elves_become_sun_elves_tt
			hidden_effect = {
				every_province = {
					limit = {
						culture = desert_elf
					}
					change_culture = sun_elf
				}
			}
			add_mil_power = 100
		}
	}
	
	sareyand_3_the_great_ash_legion = {
		icon = mission_levantine_restoration
		ai = yes
		position = 5
		
		required_missions = {
			sareyand_3_the_rogue_legion
			sareyand_4_ashes_to_iron
		}
		
		trigger = {
			num_of_owned_provinces_with = {
				value = 15
				OR = {
					has_building = barracks
					has_building = training_fields
				}
				culture = sun_elf
			}
		}
		
		effect = {
			if = {
				limit = { NOT = { has_country_modifier = elven_military } }

				clear_racial_military = yes
				
				add_country_modifier = { 
					name = restructuring_military
					duration = 1825
				}
				add_country_modifier = { 
					name = elven_military
					duration = -1  
				}
				change_unit_type = tech_east_elven
			}
			
			add_country_modifier = { 
				name = sareyand_the_great_ash_legion
				duration = -1  
			}
		}
	}
	
}




sareyand_4 = {
	slot = 5
	generic = no
	ai = yes
	has_country_shield = yes
	
	potential = {
		OR = {
			tag = F25
			AND = {
				tag = F38
				was_tag = F25
			}
		}
	}
	
	sareyand_4_found_the_shining_monastery = {
		icon = mission_conquer_tunisia
		ai = yes
		position = 1
		
		required_missions = {
			
		}
		
		trigger = {
			625 = {
				development = 30
				renaissance = 100
			}
		}
		
		effect = {
			625 = {
				add_permanent_province_modifier = {
					name = sareyand_the_shining_monastery
					duration = -1
				}
			}
		}
	}
	
	sareyand_4_build_the_blazing_temple = {
		icon = mission_into_persia_2
		ai = yes
		position = 2
		
		required_missions = {
			sareyand_4_found_the_shining_monastery
		}
		
		provinces_to_highlight = {
			province_id = 625
		}
		
		trigger = {
			treasury = 400
			625 = { has_tax_building_trigger = yes religion = bulwari_sun_cult }
		}
		
		effect = {
			add_treasury = -400
			625 = { 
				add_building = cathedral
				add_province_triggered_modifier = sareyand_the_blazing_temple
				tooltip = {
					add_permanent_province_modifier = {
						name = sareyand_the_blazing_temple_dummy
						duration = -1
					}
				}
			}
		}
	}
	
	sareyand_4_rekindle_the_ashes = {
		icon = mission_invade_the_deccan_ori
		ai = yes
		position = 3
		
		required_missions = {
			
		}
		
		trigger = {
			is_in_war = {
				attacker_leader = ROOT
			}
		}
		
		effect = {
			define_general = {
				name = "Nuzarien Szel-Orean"
				fire = 2
				shock = 6
				manuever = 0
				siege = 4
			}
		}
	}
	
	sareyand_4_ashes_to_iron = {
		icon = mission_the_battle_for_raichur
		ai = yes
		position = 4
		
		required_missions = {
			sareyand_4_rekindle_the_ashes
		}
		
		trigger = {
			army_tradition = 60
		}
		
		effect = {
			add_country_modifier = {
				name = sareyand_ash_and_iron
				duration = 7300
			}
		}
	}
	
}

