colonial_country_boost_big = {
	colonists = 1
	global_colonial_growth = 200
}

dont_colonize_but_migrate = {
	colonists = -10
}

dont_colonize_temp = {
	colonists = -10
}

warband_attrition_fix = {
	global_supply_limit_modifier = 10
}

dwarovar_hold_bankruptcy_fix = { #five years of eco help to prevent the ai nuking its eco with hold repairs
	global_tax_income = 24 # 2 income per year, offsets colonization costs.
	interest = -2 #interest reduced loans
	inflation_reduction = 0.5 #no inflation from the loans
}

acolytes_small_cabal = {

}

acolytes_medium_cabal = {

}

acolytes_large_cabal = {

}

homunculus_ruler = {
	heir_chance = -100
	#royal_marriage_acceptance = -50
}

lich_ruler = {
	heir_chance = -100
	#royal_marriage_acceptance = -50
}

vampire_ruler = {
	heir_chance = -100
}

cannot_produce_heir = {
	heir_chance = -100
}

diplomatic_pariah = {
	diplomatic_reputation = -5
	improve_relation_modifier = -0.5
	
	global_unrest = -1
	enemy_core_creation = 0.25
	
	unjustified_demands = -0.5
	ae_impact = -0.25
}

evil_nation = {
	diplomatic_reputation = -3
	unjustified_demands = -0.5
	hostile_attrition = 1
	
	global_unrest = -1
	
	land_morale = 0.15
	naval_morale = 0.15
		
	
	ae_impact = -0.2
	enemy_core_creation = 0.25
	
	manpower_recovery_speed = 0.25
	global_manpower_modifier = 0.25
	land_forcelimit_modifier = 0.5
	land_maintenance_modifier = -0.25
	
	sailors_recovery_speed = 0.25
	naval_forcelimit_modifier = 0.25
	naval_maintenance_modifier = -0.25
}

undead_military = {
	global_manpower_modifier = 1	#0.6 B
	land_maintenance_modifier = -0.5 #5 A
	land_forcelimit_modifier = 1 #4 S
	land_attrition = -0.5	#3.3 D
	
	manpower_recovery_speed = 1 #10 A
	sailors_recovery_speed = 0.5 #Lol I'm not counting this
	reinforce_speed = 1 #0.66 B
	reinforce_cost_modifier = -0.5 #2 B
	
	#5 + 0.6 + 4 + 3.3  + 10 + 0.66 + 2 - 7.5 - 0.5 = 17.56
	
	movement_speed = -0.5 #-7.5 B
 	drill_gain_modifier = -0.75 #-0.5 B
	
 	# infantry_power = -0.2
	# cavalry_power = -0.2
 	artillery_power = -0.1
	
	land_morale = 0.1 #1 A
	naval_morale = 0.1
	# discipline = -0.1
	
	movement_speed_onto_off_boat_modifier = 0.5
	
	sunk_ship_morale_hit_recieved = -0.33
	
	recover_army_morale_speed = 0.5 #2 E
	recover_navy_morale_speed = 0.5
	
	reserves_organisation = 0.33 # 0.66 D
	shock_damage_received = -0.3
	#shock_damage = -0.25
	#fire_damage = -0.25
	fire_damage_received = -0.3
	
	war_exhaustion = -0.02	#negates attrition war exhaustion
	
	hostile_attrition = 2	#undead dudes harassing em
	
	global_unrest = 2
}

wielding_calindal = {
	land_morale = 0.1
	shock_damage = 0.1
	fire_damage = -0.1
	legitimacy = 1
	prestige = 1
	may_recruit_female_generals = yes
}

has_bladechosen = {
	legitimacy = -1
	shock_damage = 0.1
}

blinded_by_the_sword = {
	legitimacy = -2
	prestige = -1
	stability_cost_modifier = 0.5
	diplomatic_reputation = -1
}

in_training_calindal_casual = {
	diplomatic_reputation = -1
	administrative_efficiency = -0.2
}

in_training_calindal_normal = {
	diplomatic_reputation = -1
	administrative_efficiency = -0.2
	yearly_corruption = 0.05
	heir_chance = -0.5
	yearly_absolutism = -0.5
}

in_training_calindal_monastic = {
	diplomatic_reputation = -1
	administrative_efficiency = -0.2
	yearly_corruption = 0.05
	heir_chance = -1
	yearly_absolutism = -1
}

adventurers_hired_mercs = {
	merc_maintenance_modifier = -0.1
}

adventurers_city_development = {
	local_development_cost = -0.1
}


beast_muzzled = {
	land_morale = -0.1
	shock_damage = -0.1
}

unleash_the_beast = {
	shock_damage = 0.1
}

protocol_of_conquest = {
	unjustified_demands = 0.5
}

diplomatic_cabinet = {
	diplomatic_reputation = 1
}

undergoing_reform = {
	stability_cost_modifier = 0.5
}

vampire_hideout = {
	picture = "vampire_hideout"
	trade_goods_size = 0.1
	local_defensiveness = 0.2
}

purged_army = {
	land_morale = -0.1
}

broken_masquerade = {
	global_unrest = 2
	land_morale = -0.1
	diplomatic_reputation = -1
	vampires_influence_modifier = 0.3
	vampires_loyalty_modifier = 0.3
}

restored_masquerade = {
	global_unrest = -1
	vampires_influence_modifier = 0.15
	vampires_loyalty_modifier = 0.15
}

vampire_thrall = {
	prestige = -1
	monarch_lifespan = 0.5
}

wounded_ruler = {
	country_admin_power = -1
	country_diplomatic_power = -1
	country_military_power = -1
	monarch_lifespan = -0.1
}

elder_pact_broken = {
	diplomatic_reputation = -2
	imperial_authority = -0.1
}

monstrous_beast_muzzled = {
	land_morale = -0.05
	shock_damage = -0.05
}

monstrous_unleash_the_beast = {
	shock_damage = 0.05
}

monstrous_protocols_of_conquest = {
	unjustified_demands = 0.25
}

monstrous_newfound_decorum = {
	diplomatic_reputation = 1
}

monstrous_undergoing_reform = {
	stability_cost_modifier = 0.5
}

monstrous_interest = {
	interest = 1
}

monstrous_societal_reforms = {
	idea_cost = 0.15
}

ruler_incoherent_orders = {
	land_morale = -0.1
	discipline = -0.05
}

ruler_complecent_ruler = {
	yearly_corruption = 0.1
	global_tax_modifier = -0.2
}

ruler_antagonized_advisor = {
	advisor_cost = 0.33
}

ruler_stupid_administration_reform = {
	state_maintenance_modifier = 1
}

city_of_ideas_brasan = {
	local_institution_spread = 0.05
}

city_of_ideas_port_jaher = {
	local_institution_spread = 0.05
}

city_of_ideas_davharral = {
	local_institution_spread = 0.05
}

city_of_ideas_sareyand = {
	local_institution_spread = 0.05
}

ai_spellcasting_cooldown = {
	#does nothing
}

owns_anbenncost = {
	diplomatic_upkeep = 1
}

corveld_regional_capitol = {
	local_development_cost = -0.20
	local_state_maintenance_modifier = -0.50
	statewide_governing_cost = -0.50
	local_autonomy = -0.15
	allowed_num_of_buildings = 1
	picture = "statewide_governing_cost"
}

vampire_infiltration = {
	defensiveness = -0.33
	stability_cost_modifier = 0.25
	global_unrest = 1
}

giant_shroom = {
	trade_goods_size = 5
}

great_conqueror_modifier = {
	#Mana
	country_admin_power = 1
	country_diplomatic_power = 1
	country_military_power = 1
	all_power_cost = -0.1
	
	#Dip
	ae_impact = -0.2
	diplomatic_annexation_cost = -0.33
	imperial_authority = 0.1
	
	#Army
	land_forcelimit_modifier = 0.25
	global_regiment_cost = -0.25
	manpower_recovery_speed = 0.66
	siege_ability = 0.2
	defensiveness = 0.2
	
	#Leader
	monarch_lifespan = 0.5
	free_leader_pool = 1
	leader_siege = 1
	leader_land_shock = 1
	leader_land_manuever = 1
	leader_land_fire = 1
	
	#Economy
	interest = -2
	development_cost = -0.15
	build_cost = -0.2
	global_tax_modifier = 0.25
	global_autonomy = -0.2
	
	#Conquest
	core_creation = -0.33
	
}

legacy_of_great_conqueror = {
	#Mana
	all_power_cost = -0.1
	
	#Economy
	interest = -1
	development_cost = -0.1
	build_cost = -0.25
	global_autonomy = -0.2
	global_unrest = -1
}