country_decisions = {

	aelnar_nation = {
		major = yes
		potential = {
			tag = A21
			normal_or_historical_nations = yes
			was_never_end_game_tag_trigger = yes
		}

		allow = {
			is_at_war = no
			is_free_or_tributary_trigger = yes
			is_nomad = no
			NOT = { exists = Z43 }
			custom_trigger_tooltip = {
				tooltip = elven_rekindling_tooltip
				has_country_flag = elven_rekindling
			}
			capital_scope = {
				colonial_region = colonial_noruin
			}
		}
		effect = {
			change_tag = Z43
			hidden_effect = { restore_country_name = yes }
			swap_non_generic_missions = yes
			remove_non_electors_emperors_from_empire_effect = yes
			if = {
				limit = {
					NOT = { government_rank = 2 }
				}
				set_government_rank = 2
			}
			add_country_modifier = {
				name = "centralization_modifier"
				duration = 7300
			}
			add_prestige = 25
			country_event = { id = ideagroups.1 } #Swap Ideas
			hidden_effect = { set_country_flag = unchangable_administration }
		}
		ai_will_do = {
			factor = 400
		}
	}
	
	conscript_lithiel = {
		major = yes
		potential = {
			tag = Z43
			has_country_modifier = aelnar_lithiel_in_prison
			had_country_flag = {
				flag = aelnar_lithiel_in_prison_flag
				days = 18250
			}
			is_at_war = yes
		}

		allow = {
			NOT = { war_score = -20 }
			war_exhaustion = 5
		}
		effect = {
			add_stability_or_adm_power = yes
			reduce_legitimacy_large_effect = yes
			define_general = {
				shock = 6
				fire = 5
				siege = 1
				manuever = 5
				female = yes
				name = "Lithiel Oathkeeper"
			}
			remove_country_modifier = aelnar_lithiel_in_prison
			hidden_effect = { set_country_flag = lithiel_retire }
		}
		ai_will_do = {
			factor = 400
		}
	}
	
	harvest_connadh = {
		major = yes
		potential = {
			ai = no
			tag = Z43
			has_country_flag = edict_21
		}

		allow = {
			always = yes
		}
		effect = {
			if = {
				limit = { NOT = { has_country_flag = harvesting_connadh } }
				hidden_effect = { set_country_flag = harvesting_connadh }
				custom_tooltip = harvest_connadh_tooltip
			}
			else = {
				hidden_effect = { clr_country_flag = harvesting_connadh }
				custom_tooltip = stop_harvest_connadh_tooltip
			}
		}
		ai_will_do = {
			factor = 400
		}
	}
	
	the_rianvisa_factions = {
		major = yes
		potential = {
			tag = Z43
			has_country_flag = aelnar_faction_war
			has_disaster = aelnar_civil_war
			NOT = {
				AND = {
					has_country_flag = aelthanas_revolted
					has_country_flag = dahvar_revolted
					has_country_flag = kayd_revolted
					has_country_flag = sicrheior_revolted
				}
			}
		}
		allow = {
			hidden_trigger = { always = no }
		}
		
		effect = {
			custom_tooltip = the_rianvisa_factions_tooltip
		}
		
		ai_will_do = {
			factor = 1
		}
	}
	
	aelnar_pilgrimage_decision = {
		major = yes
		potential = {
			tag = Z43
			has_ruler_flag = aelnar_pilgrim
			NOT = { has_country_flag = aelnar_pilgrim_debug_flag }
		}

		allow = {
			event_target:aelnar_pilgrimage_global = {
				has_ruler_leader_from = Z43
			}
		}
		
		provinces_to_highlight = {
			has_province_flag = aelnar_pilgrimage_target
		}
		
		effect = {
			country_event = { id = aelnar.67 }
		}
		ai_will_do = {
			factor = 400
		}
	}
	
	aelnar_aelnari_intelligence_agency_decision = {
		major = yes
		potential = {
			tag = Z43
			has_country_flag = aelnar_aia
			NOT = { has_country_flag = aelnar_aelnari_intelligence_agency_menu }
		}

		allow = {
			if = {
				limit = { check_variable = { aia_requirement = 320001 } }
				always = no
			}
			else = {
				custom_trigger_tooltip = {
					tooltip = aia_agents_tooltip
					check_variable = { which = aia_agents which = aia_requirement }
				}
			}
		}
		
		effect = {
			country_event = { id = aelnar.77 }
			if = {
				limit = { check_variable = { aia_requirement = 320001 } }
				custom_tooltip = aelnar_number_of_AIA_agent_tooltip_2
			}
			else = {
				custom_tooltip = aelnar_number_of_AIA_agent_tooltip
			}
		}
		ai_will_do = {
			factor = 400
		}
	}
	
	aelnar_the_covenant_decision = {
		major = yes
		potential = {
			tag = Z43
			has_country_flag = aelnar_the_covenant
			NOT = { has_country_flag = aelnar_the_covenant_menu }
		}

		allow = {
			if = {
				limit = { check_variable = { covent_infiltration = 5 } }
				always = no
			}
			else = {
				custom_trigger_tooltip = {
					tooltip = covenant_influence_tooltip
					check_variable = { which = covenant_influence which = covenant_requirement }
				}
			}
		}
		
		effect = {
			country_event = { id = aelnar.78 }
			
			if = {
				limit = { check_variable = { covent_infiltration = 5 } }
				custom_tooltip = aelnar_the_covenant_influence_tooltip_2
			}
			else = {
				custom_tooltip = aelnar_the_covenant_influence_tooltip
			}
		}
		ai_will_do = {
			factor = 400
		}
	}
	
	calasandur_box_decision = {
		major = yes
		potential = {
			tag = Z43
			has_country_flag = calasandur_box_later
			NOT = { has_country_flag = calasandur_box_debug }
		}

		allow = {
			is_at_war = no
		}
		
		effect = {
			hidden_effect = { clr_country_flag = calasandur_box_later }
			country_event = { id = aelnar.74 }
		}
		ai_will_do = {
			factor = 400
		}
	}
	
	# aelnar_nur_meweri = {
		# major = yes
		# potential = {
			# ai = no
			# tag = Z43
			# has_country_flag = aelnar_empowerment
			# NOT = { has_country_flag = aelnar_nur_meweri_debug }
		# }

		# allow = {
			# ruler_has_mage_personality = yes
			# custom_trigger_tooltip = {
				# tooltip = current_connadh_tooltip
				# always = yes
			# }
		# }
		
		# effect = {
			# country_event = { id = aelnar.92 }
		# }
		# ai_will_do = {
			# factor = 400
		# }
	# }

}
