country_decisions = {

	settle_horde = {
		major = yes
		potential = {
			has_reform =  centaur_horde
		}

		allow = {
			OR = {
				is_year = 1475
				num_of_cities = 2
			}
			is_subject = no
			NOT = { has_country_modifier = subjugated_horde }
		}
		effect = {
			add_government_reform = centaur_settled
			if = { limit = { has_country_modifier = centaur_horde_1 } remove_country_modifier = centaur_horde_1 }
			else_if = { limit = { has_country_modifier = centaur_horde_2 } remove_country_modifier = centaur_horde_2 }
			else_if = { limit = { has_country_modifier = centaur_horde_3 } remove_country_modifier = centaur_horde_3 }
			else_if = { limit = { has_country_modifier = centaur_horde_4 } remove_country_modifier = centaur_horde_4 }
			else_if = { limit = { has_country_modifier = centaur_horde_5 } remove_country_modifier = centaur_horde_5 }
			else_if = { limit = { has_country_modifier = centaur_horde_6 } remove_country_modifier = centaur_horde_6 }
			# trigger_switch = { #Broken in 1.31.5
				# on_trigger = has_country_modifier
				
				# centaur_horde_1 = { remove_country_modifier = centaur_horde_1 }
				# centaur_horde_2 = { remove_country_modifier = centaur_horde_2 }
				# centaur_horde_3 = { remove_country_modifier = centaur_horde_3 }
				# centaur_horde_4 = { remove_country_modifier = centaur_horde_4 }
				# centaur_horde_5 = { remove_country_modifier = centaur_horde_5 }
				# centaur_horde_6 = { remove_country_modifier = centaur_horde_6 }
				
			# }
			if = {
				limit = { has_country_modifier = subjugated_horde }
				remove_country_modifier = subjugated_horde
			}
			add_country_modifier = {
				name = settled_horde
				duration = -1
			}
			capital_scope = {
				add_base_tax = 1
				add_base_manpower = 2
				add_base_production = 1
				add_building_construction = {
					building = fort_15th
					speed = 0.5
					cost = 0
				}
				region = { add_permanent_claim = ROOT }
			}
			centaur_colonization = yes
		}
		ai_will_do = {
			factor = 400
			
			modifier = {
				factor = 0
				NOT = { num_of_subjects = 2 }
			}
		}
	}
	
	absorb_horde = {
		major = yes
		potential = {
			num_of_subjects = 1
			OR = {
				has_reform =  centaur_settled
				has_reform =  great_centaur_horde
			}
			any_subject_country = {
				is_subject_of_type = centaur_follower
			}
			ai = yes
		}

		allow = {
			NOT = { has_country_modifier = recently_integrated_horde }
			adm_power = 75
			is_at_war = no
			NOT = { is_year = 1530 }
		}
		effect = {
			add_adm_power = -75
			if = {
				limit = { capital_scope = { NOT = { development = 30 } } }
				capital_scope = {
					random_list = {
						50 = {
							add_base_tax = 1
							add_base_manpower = 1
						}
						50 = {
							add_base_manpower = 1
							add_base_production = 1
						}
					}
				}
			}
			custom_tooltip = absorb_horde_tooltip
			hidden_effect = {
				random_subject_country = {
					limit = { is_subject_of_type = centaur_follower }
					hidden_effect = {
						export_to_variable = {
							which = treasuryAvailable
							value = treasury
							who = THIS
						}
						export_to_variable = {
							which = manpowerAvailable
							value = manpower
							who = THIS
						}
						currency_effect = { currency=treasury takeFrom=THIS addTo=ROOT which=treasuryAvailable }
						currency_effect = { currency=manpower takeFrom=THIS addTo=ROOT which=manpowerAvailable }
					}
					every_owned_province = {
						destroy_province = yes
						remove_core = PREV
					}
				}
			}
			custom_tooltip = centaur_colonization_tooltip
			hidden_effect = {
				centaur_colonization = yes
				centaur_colonization = yes
				centaur_colonization = yes
			}
			add_country_modifier = {
				name = recently_integrated_horde
				duration = 548
			}
			hidden_effect = {
				if = { limit = { has_country_modifier = centaur_horde_1 } remove_country_modifier = centaur_horde_1 }
				else_if = { limit = { has_country_modifier = centaur_horde_2 } remove_country_modifier = centaur_horde_2 }
				else_if = { limit = { has_country_modifier = centaur_horde_3 } remove_country_modifier = centaur_horde_3 }
				else_if = { limit = { has_country_modifier = centaur_horde_4 } remove_country_modifier = centaur_horde_4 }
				else_if = { limit = { has_country_modifier = centaur_horde_5 } remove_country_modifier = centaur_horde_5 }
				else_if = { limit = { has_country_modifier = centaur_horde_6 } remove_country_modifier = centaur_horde_6 }
				# trigger_switch = { #Broken in 1.31.5
					# on_trigger = has_country_modifier
					
					# centaur_horde_1 = { remove_country_modifier = centaur_horde_1 }
					# centaur_horde_2 = { remove_country_modifier = centaur_horde_2 }
					# centaur_horde_3 = { remove_country_modifier = centaur_horde_3 }
					# centaur_horde_4 = { remove_country_modifier = centaur_horde_4 }
					# centaur_horde_5 = { remove_country_modifier = centaur_horde_5 }
					# centaur_horde_6 = { remove_country_modifier = centaur_horde_6 }
					
				# }
				if = {
					limit = { has_country_modifier = subjugated_horde }
					remove_country_modifier = subjugated_horde
				}
			}
		}
		ai_will_do = {
			factor = 400
		}
	}
	
	negeal = { #Mean Unity in centaur
		major = yes
		potential = {
			OR = {
				has_reform =  centaur_settled
				has_reform =  great_centaur_horde
			}
			is_nomad = yes
			is_year = 1500
			ai = yes
		}

		allow = {
			any_subject_country = {
				is_neighbor_of = ROOT
				has_country_modifier = centaur_administration
			}
			is_at_war = no
			horde_unity = 50
			NOT = { has_country_modifier = recent_negeal }
		}
		effect = {
			add_horde_unity = -20
			add_country_modifier = {
				name = recent_negeal
				duration = 1095
			}
			random_subject_country = {
				limit = {
					is_neighbor_of = ROOT
					has_country_modifier = centaur_administration
				}
				every_owned_province = {
					add_core = ROOT
					cede_province = ROOT
				}
			}
			hidden_effect = {
				if = { limit = { has_country_modifier = centaur_horde_1 } remove_country_modifier = centaur_horde_1 }
				else_if = { limit = { has_country_modifier = centaur_horde_2 } remove_country_modifier = centaur_horde_2 }
				else_if = { limit = { has_country_modifier = centaur_horde_3 } remove_country_modifier = centaur_horde_3 }
				else_if = { limit = { has_country_modifier = centaur_horde_4 } remove_country_modifier = centaur_horde_4 }
				else_if = { limit = { has_country_modifier = centaur_horde_5 } remove_country_modifier = centaur_horde_5 }
				else_if = { limit = { has_country_modifier = centaur_horde_6 } remove_country_modifier = centaur_horde_6 }
				# trigger_switch = { #Broken in 1.31.5
					# on_trigger = has_country_modifier
					
					# centaur_horde_1 = { remove_country_modifier = centaur_horde_1 }
					# centaur_horde_2 = { remove_country_modifier = centaur_horde_2 }
					# centaur_horde_3 = { remove_country_modifier = centaur_horde_3 }
					# centaur_horde_4 = { remove_country_modifier = centaur_horde_4 }
					# centaur_horde_5 = { remove_country_modifier = centaur_horde_5 }
					# centaur_horde_6 = { remove_country_modifier = centaur_horde_6 }
					
				# }
				if = {
					limit = { has_country_modifier = subjugated_horde }
					remove_country_modifier = subjugated_horde
				}
			}
		}
		ai_will_do = {
			factor = 400
		}
	}
	
	great_khan_awakening = {
		major = yes
		potential = {
			has_country_modifier = centaur_administration
			NOT = { has_global_flag = great_khan_formed }
			was_never_end_game_tag_trigger = yes
		}

		allow = {
			is_subject = no
			is_year = 1500
			OR = {
				total_development = 300
				AND = {
					custom_trigger_tooltip = {
						tooltip = win_battle_centaur_150_tooltip
						check_variable = {
							which = nbCharge
							value = 150
						}
					}
					total_development = 200
				}
				AND = {
					total_development = 200
					custom_trigger_tooltip = {
						tooltip = war_won_centaur_35_tooltip
						check_variable = {
							which = nbWarWon
							value = 35
						}
					}
				}
			}
			is_at_war = no
			capital_scope = { superregion = forbidden_lands_superregion }
			NOT = { is_year = 1600 }
		}
		effect = {
			change_tag = I89
			hidden_effect = { restore_country_name = yes }
			swap_non_generic_missions = yes
			remove_non_electors_emperors_from_empire_effect = yes
			add_government_reform = great_centaur_horde
			hidden_effect = {
				every_province = {
					limit = {
						OR = {
							region = west_forbidden_plains_region
							region = east_forbidden_plains_region
							region = ogre_mountains_region
							region = yyl_moista_region
							region = serpent_gift_region
							region = nuzurbokh_region
						}
						NOT = { is_core = ROOT }
					}
					add_permanent_claim = ROOT
				}
			}
			if = {
				limit = {
					NOT = { government_rank = 3 }
				}
				set_government_rank = 3
			}
			add_country_modifier = {
				name = centaur_unification_zeal
				duration = -1
				desc = centaur_unification_zeal_tooltip
			}
			add_country_modifier = {
				name = "centralization_modifier"
				duration = 7300
			}
			if = {
				limit = { ai = yes }
				add_country_modifier = {
					name = centaur_the_red_storm_ai_luck
					duration = 36500
				}
				if = { #If the Centaurs are struggling, stop spiraling
					limit = { inflation = 5 }
					add_inflation = -10
					add_treasury = 1000
				}
			}
			hidden_effect = {
				if = { limit = { has_country_modifier = centaur_horde_1 } remove_country_modifier = centaur_horde_1 }
				else_if = { limit = { has_country_modifier = centaur_horde_2 } remove_country_modifier = centaur_horde_2 }
				else_if = { limit = { has_country_modifier = centaur_horde_3 } remove_country_modifier = centaur_horde_3 }
				else_if = { limit = { has_country_modifier = centaur_horde_4 } remove_country_modifier = centaur_horde_4 }
				else_if = { limit = { has_country_modifier = centaur_horde_5 } remove_country_modifier = centaur_horde_5 }
				else_if = { limit = { has_country_modifier = centaur_horde_6 } remove_country_modifier = centaur_horde_6 }
				# trigger_switch = { #Broken in 1.31.5
					# on_trigger = has_country_modifier
					
					# centaur_horde_1 = { remove_country_modifier = centaur_horde_1 }
					# centaur_horde_2 = { remove_country_modifier = centaur_horde_2 }
					# centaur_horde_3 = { remove_country_modifier = centaur_horde_3 }
					# centaur_horde_4 = { remove_country_modifier = centaur_horde_4 }
					# centaur_horde_5 = { remove_country_modifier = centaur_horde_5 }
					# centaur_horde_6 = { remove_country_modifier = centaur_horde_6 }
					
				# }
				if = {
					limit = { has_country_modifier = subjugated_horde }
					remove_country_modifier = subjugated_horde
				}
				if = {
					limit = { has_country_modifier = settled_horde }
					remove_country_modifier = settled_horde
				}
				add_country_modifier = {
					name = centaur_zeal_timer
					duration = 365
					hidden = yes
				}
				set_variable = { centaur_zeal = 10 }
				set_global_flag = great_khan_formed
			}
			country_event = { id = ideagroups.1 } #Swap Ideas
		}
		ai_will_do = {
			factor = 400
		}
	}
	
	free_our_tribe = {
		major = yes
		potential = {
			has_country_modifier = subjugated_horde
		}

		allow = {
			NOT = { is_subject = yes }
		}
		effect = {
			remove_country_modifier = subjugated_horde
			add_prestige = 5
		}
		ai_will_do = {
			factor = 400
		}
	}
	
	centaur_zeal_status = {
		major = yes
		potential = {
			tag = I89
			NOT = { has_country_flag = centaur_no_zeal }
		}

		allow = {
			hidden_trigger = { always = no }
		}
		effect = {
			custom_tooltip = current_centaur_zeal_tooltip
		}
		ai_will_do = {
			factor = 0
		}
	}
	centaur_tournament = {
		major = yes
		potential = {
			tag = I89
			NOT = { has_country_flag = centaur_no_zeal }
		}

		allow = {
			custom_trigger_tooltip = {
				tooltip = recent_centaur_tournament_tooltip
				NOT = { has_country_modifier = recent_centaur_tournament }
			}
			num_of_generals = 5
			is_at_war = no
			has_regency = no
		}
		effect = {
			country_event = { id = centaur_tournament.1 }
		}
		ai_will_do = {
			factor = 0
		}
	}
}
