
country_decisions = {
	build_our_roost = {	
		potential = {
			has_country_modifier = harpy_administration
		}
		major = yes
		
		allow = {
			adm_power = 50
			NOT = { has_country_flag = open_harpy_roost_menu }
			
			any_owned_province = {
				NOT = { region_for_scope_province = { has_province_modifier = harpy_roost } }
				has_harpy_majority_trigger = yes
				OR = { has_terrain = mountain has_terrain = highlands has_terrain = hills }
				is_city = yes
				fort_level = 1
			}
		}
	
		effect = {
			add_adm_power = -50
			country_event = { id = harpy_events.1 }
		}
		ai_will_do = {
			factor = 1
		}
	}
}