
country_decisions = {
	steal_relics = {	
		potential = {
			has_country_flag = looking_for_special_relic
		}
		
		allow = {
			any_country = {
				has_spy_network_from = {
					who = ROOT
					value = 50
				}
				any_owned_province = {
					trade_goods = precursor_relics
				}
				NOT = {
					has_country_flag = not_have_special_relic
				}
			}
		}

		provinces_to_highlight = {
			owner = {
				any_owned_province = {
					trade_goods = precursor_relics
				}
				NOT = {
					has_country_flag = not_have_special_relic
				}
			}
			is_capital = yes
		}
	
		effect = {
			random_country = {
				limit = {
					has_spy_network_from = {
						who = ROOT
						value = 50
					}
					any_owned_province = {
						trade_goods = precursor_relics
					}
					NOT = {
						has_country_flag = not_have_special_relic
					}
				}
				if = {
					limit = { has_country_modifier = I25_special_relic }
					ROOT = {
						country_event = {
							id = verkaldromak.150
						}
					}
				}
				else = {
					ROOT = {
						country_event = {
							id = verkaldromak.151
						}
					}
				}
				set_country_flag = not_have_special_relic
			}
			
		}
		ai_will_do = {
			factor = 1
		}
	}

	buy_relics = {	
		potential = {
			has_country_flag = looking_for_special_relic
		}
		
		allow = {
			any_country = {
				has_opinion = {
					who = ROOT
					value = 100
				}
				any_owned_province = {
					trade_goods = precursor_relics
				}
				NOT = {
					has_country_flag = not_have_special_relic
				}
			}
		}

		provinces_to_highlight = {
			owner = {
				any_owned_province = {
					trade_goods = precursor_relics
				}
				NOT = {
					has_country_flag = not_have_special_relic
				}
			}
			is_capital = yes
		}
	
		effect = {
			random_country = {
				limit = {
					has_opinion = {
						who = ROOT
						value = 100
					}
					any_owned_province = {
						trade_goods = precursor_relics
					}
					NOT = {
						has_country_flag = not_have_special_relic
					}
				}
				if = {
					limit = { has_country_modifier = I25_special_relic }
					ROOT = {
						country_event = {
							id = verkaldromak.152
						}
					}
				}
				else = {
					ROOT = {
						country_event = {
							id = verkaldromak.153
						}
					}
				}
				set_country_flag = not_have_special_relic
			}
			
		}
		ai_will_do = {
			factor = 1
		}
	}
}