
namespace = castanorian_citadel

#Bal Vroren
country_event = {
	id = castanorian_citadel.1
	title = castanorian_citadel.1.t
	desc = castanorian_citadel.1.d
	picture = FORT_eventPicture
	goto = 740
	
	is_triggered_only = yes
	
	immediate = {
		740 = {
			add_province_modifier = { 
				name = rebuilding_castanorian_citadel
				duration = -1
			}
		}
	}
	
	option = {
		name = castanorian_citadel.1.a
		hidden_effect = {
			country_event = {
				id = castanorian_citadel.2
				days = 360
			}
		}
	}
}

country_event = {
	id = castanorian_citadel.2
	title = castanorian_citadel.2.t
	desc = castanorian_citadel.2.d
	picture = FORT_eventPicture
	goto = 740
	
	is_triggered_only = yes

		
	trigger = {
		740 = { has_province_modifier = rebuilding_castanorian_citadel }
	}
	
	immediate = {
		hidden_effect = { show_ambient_object = bal_vroren }
	}

	option = {
		name = castanorian_citadel.2.a

		740 = {
			remove_province_modifier = ruined_castanorian_citadel
			remove_province_modifier = rebuilding_castanorian_citadel
			add_permanent_province_modifier = { 
				name = castanorian_citadel
				duration = -1
			}
		}
	}
}

#Bal Ouord
country_event = {
	id = castanorian_citadel.3
	title = castanorian_citadel.3.t
	desc = castanorian_citadel.3.d
	picture = FORT_eventPicture
	goto = 510
	
	is_triggered_only = yes
	
	immediate = {
		510 = {
			add_province_modifier = { 
				name = rebuilding_castanorian_citadel
				duration = -1
			}
		}
	}
	
	option = {
		name = castanorian_citadel.3.a
		hidden_effect = {
			country_event = {
				id = castanorian_citadel.4
				days = 360
			}
		}
	}
}

country_event = {
	id = castanorian_citadel.4
	title = castanorian_citadel.4.t
	desc = castanorian_citadel.4.d
	picture = FORT_eventPicture
	goto = 510
	
	is_triggered_only = yes

		
	trigger = {
		510 = { has_province_modifier = rebuilding_castanorian_citadel }
	}
	
	immediate = {
		hidden_effect = { show_ambient_object = bal_ouord }
	}

	option = {
		name = castanorian_citadel.4.a

		510 = {
			remove_province_modifier = ruined_castanorian_citadel
			remove_province_modifier = rebuilding_castanorian_citadel
			add_permanent_province_modifier = { 
				name = castanorian_citadel
				duration = -1
			}
		}
	}
}

#Bal Mire
country_event = {
	id = castanorian_citadel.5
	title = castanorian_citadel.5.t
	desc = castanorian_citadel.5.d
	picture = FORT_eventPicture
	goto = 229
	
	is_triggered_only = yes
		
	immediate = {
		229 = {
			add_province_modifier = { 
				name = rebuilding_castanorian_citadel
				duration = -1
			}
		}
	}
	
	option = {
		name = castanorian_citadel.5.a
		hidden_effect = {
			country_event = {
				id = castanorian_citadel.6
				days = 360
			}
		}
	}
}

country_event = {
	id = castanorian_citadel.6
	title = castanorian_citadel.6.t
	desc = castanorian_citadel.6.d
	picture = FORT_eventPicture
	goto = 229
	
	is_triggered_only = yes

		
	trigger = {
		229 = { has_province_modifier = rebuilding_castanorian_citadel }
	}
	
	immediate = {
		hidden_effect = { show_ambient_object = bal_mire }
	}

	option = {
		name = castanorian_citadel.6.a

		229 = {
			remove_province_modifier = ruined_castanorian_citadel
			remove_province_modifier = rebuilding_castanorian_citadel
			add_permanent_province_modifier = { 
				name = castanorian_citadel
				duration = -1
			}
		}
	}
}

# The North Citadel
country_event = {
	id = castanorian_citadel.7
	title = castanorian_citadel.7.t
	desc = castanorian_citadel.7.d
	picture = FORT_eventPicture
	goto = 840
	
	is_triggered_only = yes
		
	immediate = {
		840 = {
			add_province_modifier = { 
				name = rebuilding_castanorian_citadel
				duration = -1
			}
		}
	}
	
	option = {
		name = castanorian_citadel.7.a
		hidden_effect = {
			country_event = {
				id = castanorian_citadel.8
				days = 360
			}
		}
	}
}

country_event = {
	id = castanorian_citadel.8
	title = castanorian_citadel.8.t
	desc = castanorian_citadel.8.d
	picture = FORT_eventPicture
	goto = 840
	
	is_triggered_only = yes

		
	trigger = {
		840 = { has_province_modifier = rebuilding_castanorian_citadel }
	}
	
	immediate = {
		hidden_effect = { show_ambient_object = castanor_north_citadel }
	}

	option = {
		name = castanorian_citadel.8.a

		840 = {
			remove_province_modifier = ruined_castanorian_citadel
			remove_province_modifier = rebuilding_castanorian_citadel
			add_permanent_province_modifier = { 
				name = castanorian_citadel
				duration = -1
			}
		}
	}
}

#Bal Dostan
country_event = {
	id = castanorian_citadel.9
	title = castanorian_citadel.9.t
	desc = castanorian_citadel.9.d
	picture = FORT_eventPicture
	goto = 441
	
	is_triggered_only = yes
	
	immediate = {
		441 = {
			add_province_modifier = { 
				name = rebuilding_castanorian_citadel
				duration = -1
			}
		}
	}
	
	option = {
		name = castanorian_citadel.9.a
		hidden_effect = {
			country_event = {
				id = castanorian_citadel.10
				days = 360
			}
		}
	}
}

country_event = {
	id = castanorian_citadel.10
	title = castanorian_citadel.10.t
	desc = castanorian_citadel.10.d
	picture = FORT_eventPicture
	goto = 441
	
	is_triggered_only = yes

		
	trigger = {
		441 = { has_province_modifier = rebuilding_castanorian_citadel }
	}
	
	immediate = {
		hidden_effect = { show_ambient_object = bal_dostan }
	}

	option = {
		name = castanorian_citadel.10.a

		441 = {
			remove_province_modifier = ruined_castanorian_citadel
			remove_province_modifier = rebuilding_castanorian_citadel
			add_permanent_province_modifier = { 
				name = castanorian_citadel
				duration = -1
			}
		}
	}
}