
namespace = flavor_neckcliffe

#Intro Event
country_event = {
	id = flavor_neckcliffe.1
	title = flavor_neckcliffe.1.t
	desc = flavor_neckcliffe.1.d
	picture = {
		picture = SHIP_SAILING_eventPicture
	}
	is_triggered_only = yes
	fire_only_once = yes
	
	trigger = {
		AND {
			ai = no
			tag = A22
		}
	}
	
	option = {		
		name = "flavor_neckcliffe.1.a"
		26 = { #Throatport
			add_province_modifier = {
				name = neckcliffe_rampant_counterfeiters
				duration = -1}
			add_province_modifier = {
				name = neckcliffe_rampant_corruption
				duration = -1}
			add_province_modifier = {
				name = neckcliffe_throatport_slums
				duration = -1}
		}
	}
}

#Buying Napesbay
country_event = {
	id = flavor_neckcliffe.2
	title = flavor_neckcliffe.2.t
	desc = flavor_neckcliffe.2.d
	picture = {
		picture = ECONOMY_eventPicture
	}
	is_triggered_only = yes
	
	trigger = {
		always = yes
	}
	
	
	option = {		
		name = "flavor_neckcliffe.2.a"
		add_treasury = -500
		vassalize = A82
	}
	option = {		
		name = "flavor_neckcliffe.2.b"
		add_prestige = -10
	}
}

#Building the Lighthouse
country_event = {
	id = flavor_neckcliffe.3
	title = flavor_neckcliffe.3.t
	desc = flavor_neckcliffe.3.d
	picture = {
		picture = ECONOMY_eventPicture
	}
	is_triggered_only = yes
	trigger = {
		always = yes
	}
	
	
	option = {
		name = "flavor_neckcliffe.3.a"
		94 = {		
				add_permanent_province_modifier = { 		
					name = "neckcliffe_lighthouse"
					duration = -1
				}
		}
		add_treasury = -1000
		add_adm_power = -100
	}
}

#Launching the Legislature
country_event = {
	id = flavor_neckcliffe.4
	title = flavor_neckcliffe.4.t
	desc = flavor_neckcliffe.4.d
	picture = {
		picture = ECONOMY_eventPicture
	}
	is_triggered_only = yes
	trigger = {
		always = yes
	}
	
	
	option = {
			name = "flavor_neckcliffe.4.a"
			custom_tooltip = neckcliffe_legislature 
			if = {
				limit = {
					AND = {
						NOT = {tag = A22}
						is_part_of_hre = yes
					}
				}
				add_country_modifier = {
					name = "neckcliffe_treaty_of_the_white_cliffs" 					
					duration = -1
				}
			}
		set_country_flag = neckcliffe_dominance_on_the_seas
	}
}
