namespace = native_americans

# Frozen Lands - colonizing arctic
province_event = {
	id = native_americans.1
	title = "native_americans.1.t"
	desc = "native_americans.1.d"
	picture = EXPLORERS_eventPicture

	trigger = {
		has_dlc = "Conquest of Paradise"
		owner = {
			government = native
			NOT = {
				capital_scope = {
					has_climate = arctic
				}
			}
			NOT = { has_country_flag = natives_adapted_arctic }
		}
		is_colony = yes
		colonysize = 100
		NOT = { colonysize = 500 }
		has_climate = arctic
		OR = {
			is_month = 10
			NOT = { is_month = 5 }
		}
	}

	mean_time_to_happen = {
		months = 240
	}

	option = {
		name = "native_americans.1.a"
		ai_chance = { factor = 75 }
		add_colonysize = 200
		owner = {
			add_stability = -1
			set_country_flag = natives_adapted_arctic
		}
	}

	option = {
		name = "native_americans.1.b"
		ai_chance = { factor = 25 }
		add_colonysize = -100
	}
}

# Parched Lands - colonizing arid
province_event = {
	id = native_americans.2
	title = "native_americans.2.t"
	desc = "native_americans.2.d"
	picture = FAMINE_eventPicture

	trigger = {
		has_dlc = "Conquest of Paradise"
		owner = {
			government = native
			NOT = {
				capital_scope = {
					has_climate = arid
				}
			}
			NOT = { has_country_flag = natives_adapted_arid }
		}
		is_colony = yes
		colonysize = 100
		NOT = { colonysize = 500 }
		has_climate = arid
		is_month = 5
		NOT = { is_month = 10 }
	}

	mean_time_to_happen = {
		months = 240
	}

	option = {
		name = "native_americans.2.a"
		ai_chance = { factor = 75 }
		add_colonysize = 200
		owner = {
			add_stability = -1
			set_country_flag = natives_adapted_arid
		}
	}

	option = {
		name = "native_americans.2.b"
		ai_chance = { factor = 25 }
		add_colonysize = -100
	}
}

# Our New Home in the North - migrating to arctic
province_event = {
	id = native_americans.3
	title = "native_americans.3.t"
	desc = "native_americans.3.d"
	picture = EXPLORERS_eventPicture

	trigger = {
		has_dlc = "Conquest of Paradise"
		owner = {
			government = native
			# Check if the tribe is still migrating
			NOT = { num_of_cities = 2 }
			NOT = { colony = 1 }
			any_neighbor_country = {
				capital_scope = {
					has_climate = arctic
				}
			}
			NOT = { has_country_flag = natives_adapted_arctic }
		}
		has_climate = arctic
		OR = {
			is_month = 10
			NOT = { is_month = 5 }
		}
	}

	mean_time_to_happen = {
		months = 480
	}
	
	option = {
		name = native_americans.3.a
		owner = {
			random_neighbor_country = {
				limit = {
					capital_scope = {
						has_climate = arctic
					}
				}
				add_opinion = { who = ROOT modifier = opinion_pleased }
				set_country_flag = natives_adapted_arctic
			}
			add_prestige = -10
		}
	}

	option = {
		name = native_americans.3.b
		add_province_modifier = {
			name = "learning_from_the_land"
			duration = 365
		}
		owner = {
			add_manpower = -2
			set_country_flag = natives_adapted_arctic
		}
	}
}

# Our New Home in the Desert - migrating to arid
province_event = {
	id = native_americans.4
	title = "native_americans.4.t"
	desc = "native_americans.4.d"
	picture = EXPLORERS_eventPicture

	trigger = {
		has_dlc = "Conquest of Paradise"
		owner = {
			government = native
			# Check if the tribe is still migrating
			NOT = { num_of_cities = 2 }
			NOT = { colony = 1 }
			any_neighbor_country = {
				capital_scope = {
					has_climate = arctic
				}
			}
			NOT = { has_country_flag = natives_adapted_arid }
		}
		has_climate = arid
		is_month = 5
		NOT = { is_month = 10 }
	}

	mean_time_to_happen = {
		months = 480
	}
	
	option = {
		name = native_americans.4.a
		owner = {
			random_neighbor_country = {
				limit = {
					capital_scope = {
						has_climate = arctic
					}
				}
				add_opinion = { who = ROOT modifier = opinion_pleased }
				set_country_flag = natives_adapted_arid
			}
			add_prestige = -10
		}
	}

	option = {
		name = native_americans.4.b
		add_province_modifier = {
			name = "learning_from_the_land"
			duration = 365
		}
		owner = {
			add_manpower = -2
			set_country_flag = natives_adapted_arid
		}
	}
}

# Counting Coup - retaining or rejecting traditions of proving courage
country_event = {
	id = native_americans.5
	title = "native_americans.5.t"
	desc = "native_americans.5.d"
	picture = DEBATE_REPUBLICAN_eventPicture

	trigger = {
		has_dlc = "Conquest of Paradise"
		government = native
		NOT = { has_country_flag = natives_discounting_coup }
		advisor = army_reformer
	}

	mean_time_to_happen = {
		months = 480
	}
	
	# Stop counting coup
	option = {
		name = "native_americans.5.a"
		add_mil_power = 100
		add_prestige = -20
		set_country_flag = natives_discounting_coup
	}

	# Continue counting coup
	option = {
		name = "native_americans.5.b"
		add_ruler_modifier = {
			name = "counting_coup"
		}
	}
}

# Appointing a War Chief - select mil-strong leader during times of war
country_event = {
	id = native_americans.6
	title = "native_americans.6.t"
	desc = "native_americans.6.d"
	picture = LAND_MILITARY_eventPicture
	
	trigger= {
		has_dlc = "Conquest of Paradise"
		government = native
		is_at_war = yes
		NOT = { has_country_flag = appointed_war_chief }
		army_tradition = 20
	}

	mean_time_to_happen = {
		months = 96
		modifier = {
			factor = 0.5
			has_ruler_modifier = "counting_coup"
		}
	}

	# Appoint a war chief
	option = {
		name = "native_americans.6.a"
		set_country_flag = appointed_war_chief
		define_ruler = {
			adm = 0
			dip = 1
			mil = 5
			fixed = yes
		}
	}

	# Retain peace chief
	option = {
		name = "native_americans.6.b"
		add_dip_power = 10
	}
}

# Appointing a Peace Chief - removing the War Chief from previous event on peace
country_event = {
	id = native_americans.7
	title = "native_americans.7.t"
	desc = "native_americans.7.d"
	picture = CONQUEST_eventPicture

	is_triggered_only = yes

	trigger = {
		has_dlc = "Conquest of Paradise"
		has_country_flag = appointed_war_chief
	}

	# Peace Chief appointed, random traits but decent adm/dip
	option = {
		name = "native_americans.7.a"
		define_ruler = {
			adm = 2
			dip = 2
		}
		clr_country_flag = appointed_war_chief
	}

	# War Chief remains in power, military coup
	option = {
		name = "native_americans.7.b"
		add_stability = -1
	}
}

# Those who Travel and Those who Stay - exchange between nomadic and settled indians
# First event suggests the exchange to the settled party
country_event = {
	id = native_americans.8
	title = "native_americans.8.t"
	desc = "native_americans.8.d"
	picture = MERCHANTS_TALKING_eventPicture

	trigger = {
		has_dlc = "Conquest of Paradise"
		government = native
		num_of_cities = 2
		any_neighbor_country = {
			government = native
			NOT = { num_of_cities = 2 }
			NOT = { colony = 1 }
		}
	}

	mean_time_to_happen = {
		months = 720
	}

	# Suggest exchange to nomadic
	option = {
		name = "native_americans.8.a"
		random_neighbor_country = {
			limit = {
				government = native
				NOT = { num_of_cities = 2 }
				NOT = { colony = 1 }
			}			
			country_event = { id = native_americans.9 days = 10 tooltip = native_americans.8.a.tt }
		}
	}

	# Reject the idea, insulting the nomads as inferior
	option = {
		name = "native_americans.8.b"
		add_prestige = 10
		random_neighbor_country = {
			limit = {
				government = native
				NOT = { num_of_cities = 2 }
				NOT = { colony = 1 }
			}
			add_opinion = { who = ROOT modifier = opinion_insulted }
		}
	}
}

# Those who Travel and Those who Stay, continued
# Nomads receive suggestion
country_event = {
	id = native_americans.9
	title = "native_americans.8.t"
	desc = "native_americans.9.d"
	picture = MERCHANTS_TALKING_eventPicture

	is_triggered_only = yes

	# Accept, the exchange will happen
	option = {
		name = "native_americans.9.a"
		add_adm_power = 25
		add_dip_power = 25
		add_country_modifier = {
			name = "intercultural_exchange"
			duration = 1825
		}
		FROM = {
			add_opinion = { who = ROOT modifier = reconciling_differences }
			hidden_effect = {
				country_event = { id = native_americans.11 days = 10 }
			}
		}
	}

	# Reject, insulting the settled tribe
	option = {
		name = "native_americans.9.b"
		add_prestige = 10
		FROM = {
			add_opinion = { who = ROOT modifier = opinion_insulted }
			hidden_effect = {
				country_event = { id = native_americans.10 days = 10 }
			}
		}
	}
}

# Those who Travel and Those who Stay, continued
# Settlers get event when nomads reject and insult them
country_event = {
	id = native_americans.10
	title = "native_americans.8.t"
	desc = "native_americans.10.d"
	picture = BORDER_TENSION_eventPicture

	is_triggered_only = yes

	option = {
		name = "native_americans.10.a"
	}
}

# Those who Travel and Those who Stay, continued
# Settlers get final event from nomads who accepted, exchange goes through
country_event = {
	id = native_americans.11
	title = "native_americans.8.t"
	desc = "native_americans.11.d"
	picture = MERCHANTS_TALKING_eventPicture

	is_triggered_only = yes

	# Give the settlers the modifier and power
	option = {
		name = "native_americans.11.a"
		add_adm_power = 25
		add_dip_power = 25
		add_country_modifier = {
			name = "intercultural_exchange"
			duration = 1825
		}
	}
}

# Holy Smoke - event on deciding whether to curb or enourage provincial tobacco use
province_event = {
	id = native_americans.12
	title = "native_americans.12.t"
	desc = "native_americans.12.d"
	picture = DIPLOMACY_eventPicture

	trigger = {
		has_dlc = "Conquest of Paradise"
		trade_goods = tobacco
		owner = {
			government = native
		}
		NOT = {
			OR = {
				has_province_modifier = restricted_tobacco
				has_province_modifier = encouraged_tobacco
			}
		}
	}

	mean_time_to_happen = {
		months = 960
	}

	# Restrict the use of tobacco to ceremonies
	option = {
		name = "native_americans.12.a"
		owner = { add_prestige = 5 }
		add_province_modifier = {
			name = "restricted_tobacco"
			duration = 1825
		}
	}

	# Encourage public recreational use of tobacco
	option = {
		name = "native_americans.12.b"
		add_province_modifier = {
			name = "encouraged_tobacco"
			duration = 1825
		}
	}
}

# Preparing for the Sun Dance - Great Plains nation prepares for the ceremonial dance
country_event = {
	id = native_americans.14
	title = "native_americans.14.t"
	desc = "native_americans.14.d"
	picture = PRAYING_eventPicture

	trigger = {
		has_dlc = "Conquest of Paradise"
		government = native
		is_at_war = no
		capital_scope = {
			region = great_plains_region
		}
		is_month = 3
		NOT = { is_month = 8 }
		NOT = { has_country_flag = preparing_sundance }
	}

	mean_time_to_happen = {
		months = 120
	}

	# Prepare for the Sun Dance, setting aside manpower
	option = {
		name = "native_americans.14.a"
		country_event = { id = native_americans.15 days = 60 tooltip = native_americans.14.a.tt }
		add_manpower = -3
		add_treasury = -20
		add_prestige = 5
		set_country_flag = preparing_sundance
	}

	# Skip the sundance this year, losing prestige
	option = {
		name = "native_americans.14.b"
		add_prestige = -5
	}
}

# The Sun Dance
country_event = {
	id = native_americans.15
	title = "native_americans.15.t"
	desc = "native_americans.15.d"
	picture = RELIGION_eventPicture

	is_triggered_only = yes

	# The Sun Dance is performed, giving a stability boost
	option = {
		name = "native_americans.15.a"
		add_stability_or_adm_power = yes
		clr_country_flag = preparing_sundance
	}
}

# Hunters or Workers of the Soil
country_event = {
	id = native_americans.16
	title = "native_americans.16.t"
	desc = "native_americans.16.d"
	picture = FARMING_eventPicture

	trigger = {
		has_dlc = "Conquest of Paradise"
		government = native
		NOT = { num_of_cities = 2 }
		NOT = { colony = 1 }
		capital_scope = {
			trade_goods = fur
			NOT = { has_province_modifier = great_hunters }
			NOT = { has_building = native_three_sisters_field }
		}
	}

	mean_time_to_happen = {
		months = 480
		modifier = {
			factor = 0.5
			capital_scope = { development = 9 }
		}
	}

	# The tribe chooses to give farming a try
	option = {
		name = "native_americans.16.a"
		capital_scope = {
			add_building = native_three_sisters_field
		}
	}

	# The tribe retains their tradition of prioritizing hunting
	option = {
		name = "native_americans.16.b"
		add_prestige = 10
		capital_scope = {
			add_province_modifier = {
				name = "great_hunters"
				duration = 1825
			}
		}
	}
}

# By Fire - using controlled fires to shape the landscape in a province
province_event = {
	id = native_americans.17
	title = "native_americans.17.t"
	desc = "native_americans.17.d"
	picture = EXPLORERS_eventPicture
	goto = root
	
	trigger = {
		has_dlc = "Conquest of Paradise"
		owner = {
			government = native
		}
	}

	mean_time_to_happen = {
		months = 2000
		modifier = {
			factor = 1.5
			owner = { num_of_cities = 10 }
		}
		modifier = {
			factor = 1.5
			owner = { num_of_cities = 20 }
		}
		modifier = {
			factor = 2.0
			owner = { num_of_cities = 30 }
		}
		modifier = {
			factor = 2.0
			owner = { num_of_cities = 50 }
		}
	}

	# Tribe decides to go through with the controlled fire
	option = {
		name = "native_americans.17.a"
		random_list = {
			80 = {
				province_event = { id = native_americans.18 days = 14 tooltip = native_americans.17.a.tt }
			}
			20 = {
				province_event = { id = native_americans.19 days = 14 tooltip = native_americans.17.a.tt2 }
			}
		}
	}

	# Tribe decides not to take the risk
	option = {
		name = "native_americans.17.b"
		owner = {
			add_adm_power = -10
		}
	}
}

# Fire successful, production boosted
province_event = {
	id = native_americans.18
	title = "native_americans.18.t"
	desc = "native_americans.18.d"
	picture = FARMING_eventPicture

	is_triggered_only = yes

	option = {
		name = "native_americans.18.a"
		add_province_modifier = {
			name = "land_shaped_by_fire"
			duration = 1825
		}
	}
}

# Fire out of Control, stability lost
province_event = {
	id = native_americans.19
	title = "native_americans.19.t"
	desc = "native_americans.19.d"
	picture = COUNTRY_COLLAPSE_eventPicture

	is_triggered_only = yes

	option = {
		name = "native_americans.19.a"
		owner = {
			add_stability = -1
		}
	}
}

# Straying Son - band splits up, moving base tax
country_event = {
	id = native_americans.20
	title = "native_americans.20.t"
	desc = "native_americans.20.d"
	picture = LIBERUM_VETO_eventPicture

	trigger = {
		has_dlc = "Conquest of Paradise"
		government = native
		num_of_cities = 2
		any_owned_province = {
			base_tax = 2
		}
	}

	mean_time_to_happen = {
		months = 1200
	}

	immediate = {
		hidden_effect = {
			random_owned_province = {
				limit = {
					base_tax = 2
				}
				set_province_flag = straying_son_origin
			}
			random_owned_province = {
				limit = {
					NOT = { has_province_flag = straying_son_origin }
				}
				set_province_flag = straying_son_target
			}
		}
	}

	# Force the son to stay - increases revoltrisk
	option = {
		name = "native_americans.20.a"
		random_owned_province = {
			limit = { has_province_flag = straying_son_origin }
			add_unrest = 2
		}
		hidden_effect = {
			every_owned_province = {
				clr_province_flag = straying_son_origin
				clr_province_flag = straying_son_target
			}
		}
	}

	# Allow the split - move basetax, give Decentralization modifier
	option = {
		name = "native_americans.20.b"
		add_country_modifier = {
			name = "decentralization_modifier"
			duration = 3650
		}
		random_owned_province = {
			limit = { has_province_flag = straying_son_origin }
			add_base_tax = -1
			hidden_effect = { clr_province_flag = straying_son_origin }
		}
		random_owned_province = {
			limit = { has_province_flag = straying_son_target }
			add_base_tax = 1
			hidden_effect = { clr_province_flag = straying_son_target }
		}
	}
}

# Large Band Split Up - takes one base tax from capital, adds one to two other provinces
country_event = {
	id = native_americans.21
	title = "native_americans.21.t"
	desc = "native_americans.21.d"
	picture = CULTURE_eventPicture

	trigger = {
		has_dlc = "Conquest of Paradise"
		government = native
		num_of_cities = 3
		capital_scope = {
			base_tax = 2
		}
	}

	mean_time_to_happen = {
		months = 1800
	}

	immediate = {
		hidden_effect = {
			random_owned_province = {
				limit = {
					is_capital = no
				}
				set_province_flag = large_band_split_targets
			}
			random_owned_province = {
				limit = {
					is_capital = no
					NOT = { has_province_flag = large_band_split_targets }
				}
				set_province_flag = large_band_split_targets
			}
		}
	}

	# Allow the split, removing and adding base tax and dropping stability
	option = {
		name = "native_americans.21.a"
		add_stability = -1
		random_owned_province = {
			limit = { is_capital = yes }
			add_base_tax = -1
		}
		every_owned_province = {
			limit = { has_province_flag = large_band_split_targets }
			add_base_tax = 1
			hidden_effect = { clr_province_flag = large_band_split_targets }
		}
	}

	# Disallow the split, increased centralization
	option = {
		name = "native_americans.21.b"
		add_country_modifier = {
			name = "centralization_modifier"
			duration = 3650
		}
		hidden_effect = {
			every_owned_province = {
				limit = { has_province_flag = large_band_split_targets }
				clr_province_flag = large_band_split_targets
			}
		}
	}
}

# Hunters on the move - drops admin or forces player to buy a building
country_event = {
	id = native_americans.22
	title = "native_americans.22.t"
	desc = "native_americans.22.d"
	picture = FEAST_eventPicture

	trigger = {
		has_dlc = "Conquest of Paradise"
		government = native
		num_of_cities = 2
		any_owned_province = {
			trade_goods = fur
		}
	}

	mean_time_to_happen = {
		months = 1200
	}

	# Allow the hunters to move, lose admin, add prestige
	option = {
		name = "native_americans.22.a"
		add_adm_power = -50
		add_prestige = 10
	}

	# Give them a field to become farmers
	option = {
		name = "native_americans.22.b"
		add_treasury = -10
		random_owned_province = {
			limit = { trade_goods = fur }
			add_building = native_three_sisters_field
		}
	}
}

# Art of Weaving
province_event = {
	id = native_americans.23
	title = "native_americans.23.t"
	desc = "native_americans.23.d"
	picture = ARTWORK_eventPicture

	trigger = {
		has_dlc = "Conquest of Paradise"
		owner = {
			tag = NAH
			NOT = { has_country_flag = navajo_weaves }
		}
		OR = {
			trade_goods = wool
			trade_goods = cotton
			trade_goods = cloth
		}
	}

	mean_time_to_happen = {
		months = 240
	}

	option = {
		name = "native_americans.23.a"
		owner = {
			add_prestige = 15
			set_country_flag = navajo_weaves
		}
	}
}

# Moundbuilders
country_event = {
	id = native_americans.24
	title = "native_americans.24.t"
	desc = "native_americans.24.d"
	picture = GREAT_BUILDING_eventPicture

	trigger = {
		has_dlc = "Conquest of Paradise"
		government = native
		NOT = { has_country_flag = moundbuilders_completed }
		capital_scope = {
			OR = {
				region = mississippi_region
				region = northeast_america_region
				region = southeast_america_region
			}
		}
		any_neighbor_country = {
			capital_scope = {
				continent = europe
			}
		}
	}

	mean_time_to_happen = {
		months = 400
	}

	option = {
		name = "native_americans.24.a"
		add_treasury = -100
		add_manpower = -2
		add_prestige = 30
		set_country_flag = moundbuilders_completed
	}

	option = {
		name = "native_americans.24.b"
		add_prestige = -15
	}
}

#NEW STUFF FOR 1.31

# General Events for every Native
country_event = {
	id = native_americans.28
	title = "native_americans.28.t"
	desc = "native_americans.28.d"
	picture = ADVISOR_eventPicture

	trigger = {
		has_dlc = "Conquest of Paradise"
		government = native
	}
	
	mean_time_to_happen = {
		months = 400
	}
	
	option = {
		name = "native_americans.28.a" 
		hidden_effect = {
			set_country_flag = deer
		}
		country_event = {
			id = native_americans.29
			days = 1
		}
	}
	
	option = {
		name = "native_americans.28.b"	
		trigger = {
			capital_scope = {
				region = cascadia_region
			}
		}	
		hidden_effect = {
			set_country_flag = salmon
		}
		country_event = {
			id = native_americans.29
			days = 1
		}
	}
	
	option = {
		name = "native_americans.28.c" 	
		trigger = {
			capital_scope = {
				OR = {
					region = cascadia_region
					region = california_region
				}
			}
		}			
		hidden_effect = {
			set_country_flag = seal
		}
		country_event = {
			id = native_americans.29
			days = 1
		}
	}
	
	option = {
		name = "native_americans.28.e" 
		trigger = {
			capital_scope = {
				OR = {
					region = california_region
					region = great_plains_region
					region = rio_grande_region
					area = red_river_area
					area = saskatchewan_area
					area = prairies_area
					area = athabasca_area
					area = assiniboia_area
					area = manitoba_area
				}
			}
		}		
		hidden_effect = {
			set_country_flag = pronghorn
		}
		country_event = {
			id = native_americans.29
			days = 1
		}
	}
	
	option = {
		name = "native_americans.28.f" 
		trigger = {
			capital_scope = {
				OR = {
					region = great_plains_region
					region = rio_grande_region
					area = red_river_area
					area = saskatchewan_area
					area = prairies_area
					area = athabasca_area
					area = assiniboia_area
					area = manitoba_area
					region = great_lakes_region
					region = mississippi_region
				}
			}
		}		
		hidden_effect = {
			set_country_flag = bison
		}
		country_event = {
			id = native_americans.29
			days = 1
		}
	}
}

country_event = {
	id = native_americans.29
	title = "native_americans.29.t"
	desc = {
		trigger = {
			has_country_flag = deer
		}
		desc = "native_americans.29.d1" #Deer
	}

	desc = {
		trigger = {
			has_country_flag = salmon
		}
		desc = "native_americans.29.d2" #Salmon
	}
	
	desc = {
		trigger = {
			has_country_flag = seal
		}
		desc = "native_americans.29.d3" #Seal
	}

	desc = {
		trigger = {
			has_country_flag = pronghorn
		}
		desc = "native_americans.29.d4" #Pronghorn
	}
	
	desc = {
		trigger = {
			has_country_flag = bison
		}
		desc = "native_americans.29.d5" #Bison
	}
	
	picture = NATIVES_eventPicture

	is_triggered_only = yes
	
	option = {
		name = "native_americans.29.a"
		random_list = {
			80 = {
				custom_tooltip = unsuccessful_hunt
			}	
			20 = {
				custom_tooltip = successful_hunt
				add_prestige = 15
			}
		}
		hidden_effect = {
			clr_country_flag = deer
			clr_country_flag = salmon
			clr_country_flag = seal
			clr_country_flag = pronghorn
			clr_country_flag = bison
		}
	}
}
	
# Events specific for North Western Americans

# Potlatch
country_event = { 
	id = native_americans.25
	title = "native_americans.25.t"
	desc = "native_americans.25.d"
	picture = FEAST_eventPicture

	trigger = {
		has_dlc = "Conquest of Paradise"
		government = native
		OR = {
			primary_culture = athabascan
			primary_culture = chinook
			primary_culture = haida
			primary_culture = salish
		}
		AND = {
			is_month = 0
			NOT = { is_month = 2 }
			is_month = 11
		}
		NOT = { 
			has_country_modifier = potlatch_held
			is_at_war = yes
		}	
	}

	mean_time_to_happen = {
		months = 120
	}

	option = {
		name = "native_americans.25.a"
		ai_chance = { 
			factor = 50 
			modifier = {
				factor = 0
				NOT = {
					treasury = 100
				}
			}
		}	
		add_treasury = -100
		add_prestige = 15
		add_legitimacy = 1
		add_country_modifier = {
			name = "potlatch_held"
			duration = 365
		}
		hidden_effect = {
			random_known_country = { 
				country_event = {
					id = native_americans.26
					days = 1
					random = 15
				}
			}
		}
	}

	option = {
		name = "native_americans.25.b"
		ai_chance = { 
			factor = 50 
			modifier = {
				factor = 2
				NOT = {
					treasury = 100
				}
			}
		}
		add_prestige = -15
		hidden_effect = {
			random_known_country = { 
				country_event = {
					id = native_americans.27
					days = 1
					random = 15
				}
			}
		}
	}
}

# Potlatch 2
country_event = {
	id = native_americans.26
	title = "native_americans.26.t"
	desc = "native_americans.26.d"
	picture = FEAST_eventPicture

	is_triggered_only = yes

	option = {
		name = "native_americans.26.a"
		ai_chance = { 
			factor = 25 
			modifier = {
				factor = 2
				alliance_with = ROOT
			}
			modifier = {
				factor = 1.25
				has_opinion = {
					who = ROOT
					value = 150
				}
			}
			modifier = {
				factor = 1.25
				has_opinion = {
					who = ROOT
					value = 50
				}
			}
			modifier = {
				factor = 0.75
				NOT = {
					has_opinion = {
						who = ROOT
						value = 0
					}
				}
			}
			modifier = {
				factor = 0.5
				NOT = {
					has_opinion = {
						who = ROOT
						value = -50
					}
				}
			}
			modifier = {
				factor = 0.5
				NOT = {
					has_opinion = {
						who = ROOT
						value = -150
					}
				}
			}
		}
		add_opinion = {
			who = FROM
			modifier = potlatch_good
		}
	}

	option = {
		name = "native_americans.26.b"
		ai_chance = { 
			factor = 25 
			modifier = {
				factor = 1
				alliance_with = ROOT
			}
			modifier = {
				factor = 1.10
				has_opinion = {
					who = ROOT
					value = 150
				}
			}
			modifier = {
				factor = 1.10
				has_opinion = {
					who = ROOT
					value = 50
				}
			}
			modifier = {
				factor = 0.9
				NOT = {
					has_opinion = {
						who = ROOT
						value = 0
					}
				}
			}
			modifier = {
				factor = 0.75
				NOT = {
					has_opinion = {
						who = ROOT
						value = -50
					}
				}
			}
			modifier = {
				factor = 0.75
				NOT = {
					has_opinion = {
						who = ROOT
						value = -150
					}
				}
			}
		}
		add_opinion = {
			who = FROM
			modifier = potlatch_nice
		}
	}
	
	option = {
		name = "native_americans.26.c"
		ai_chance = { 
			factor = 25 
			modifier = {
				factor = 1
				alliance_with = ROOT
			}
			modifier = {
				factor = 0.9
				has_opinion = {
					who = ROOT
					value = 150
				}
			}
			modifier = {
				factor = 0.9
				has_opinion = {
					who = ROOT
					value = 50
				}
			}
			modifier = {
				factor = 1.1
				NOT = {
					has_opinion = {
						who = ROOT
						value = 0
					}
				}
			}
			modifier = {
				factor = 1.25
				NOT = {
					has_opinion = {
						who = ROOT
						value = -50
					}
				}
			}
			modifier = {
				factor = 1.25
				NOT = {
					has_opinion = {
						who = ROOT
						value = -150
					}
				}
			}
		}
	}
	
	option = {
		name = "native_americans.26.e"
		ai_chance = { 
			factor = 25 
			modifier = {
				factor = 0.5
				alliance_with = ROOT
			}
			modifier = {
				factor = 0.5
				has_opinion = {
					who = ROOT
					value = 150
				}
			}
			modifier = {
				factor = 0.75
				has_opinion = {
					who = ROOT
					value = 50
				}
			}
			modifier = {
				factor = 1.25
				NOT = {
					has_opinion = {
						who = ROOT
						value = 0
					}
				}
			}
			modifier = {
				factor = 1.25
				NOT = {
					has_opinion = {
						who = ROOT
						value = -50
					}
				}
			}
			modifier = {
				factor = 2
				NOT = {
					has_opinion = {
						who = ROOT
						value = -150
					}
				}
			}
		}
		add_opinion = {
			who = FROM
			modifier = potlatch_bad
		}
	}
}

# Potlatch 3
country_event = {
	id = native_americans.27
	title = "native_americans.27.t"
	desc = "native_americans.27.d"
	picture = FEAST_eventPicture

	is_triggered_only = yes

	option = {
		name = "native_americans.27.a"
		ai_chance = { 
			factor = 50 
			modifier = {
				factor = 2
				alliance_with = ROOT
			}
			modifier = {
				factor = 1.25
				has_opinion = {
					who = ROOT
					value = 150
				}
			}
			modifier = {
				factor = 1.25
				has_opinion = {
					who = ROOT
					value = 50
				}
			}
			modifier = {
				factor = 0.75
				NOT = {
					has_opinion = {
						who = ROOT
						value = 0
					}
				}
			}
			modifier = {
				factor = 0.5
				NOT = {
					has_opinion = {
						who = ROOT
						value = -50
					}
				}
			}
			modifier = {
				factor = 0.5
				NOT = {
					has_opinion = {
						who = ROOT
						value = -150
					}
				}
			}
		}
	}

	option = {
		name = "native_americans.27.b"
		ai_chance = { 
			factor = 50 
			modifier = {
				factor = 1
				alliance_with = ROOT
			}
			modifier = {
				factor = 1.10
				has_opinion = {
					who = ROOT
					value = 150
				}
			}
			modifier = {
				factor = 1.10
				has_opinion = {
					who = ROOT
					value = 50
				}
			}
			modifier = {
				factor = 0.9
				NOT = {
					has_opinion = {
						who = ROOT
						value = 0
					}
				}
			}
			modifier = {
				factor = 0.75
				NOT = {
					has_opinion = {
						who = ROOT
						value = -50
					}
				}
			}
			modifier = {
				factor = 0.75
				NOT = {
					has_opinion = {
						who = ROOT
						value = -150
					}
				}
			}
		}
		add_opinion = {
			who = FROM
			modifier = potlatch_bad
		}
		add_casus_belli = {
			target = FROM
			type = cb_insult
			months = 12
		}
	}
}

# The Shame Pole
country_event = {
	id = native_americans.30
	title = "native_americans.30.t"
	desc = "native_americans.30.d"
	picture = ACCUSATION_eventPicture

	trigger = {
		has_dlc = "Conquest of Paradise"
		government = native
		OR = {
			primary_culture = athabascan
			primary_culture = chinook
			primary_culture = haida
			primary_culture = salish
		}
		NOT = { 
			has_country_modifier = shame_pole
		}	
	}

	option = {
		name = "native_americans.30.a"
		ai_chance = { 
			factor = 50 
			modifier = {
				factor = 0
				NOT = {
					treasury = 100
				}
			}
		}
		add_treasury = -100
	}

	mean_time_to_happen = {
		months = 400
	}
	
	option = {
		name = "native_americans.30.b"
		ai_chance = { 
			factor = 50 
			modifier = {
				factor = 0
				treasury = 100
			}
		}
		add_country_modifier = {
			name = "shame_pole"
			duration = 3650
		}
	}
}

# Honor Pole (Allies)
country_event = {
	id = native_americans.31
	title = "native_americans.31.t"
	desc = "native_americans.31.d"
	picture = GOOD_WITH_MONARCH_eventPicture

	trigger = {
		has_dlc = "Conquest of Paradise"
		government = native
		OR = {
			primary_culture = athabascan
			primary_culture = chinook
			primary_culture = haida
			primary_culture = salish
		}
		any_ally = {
			NOT = {
				has_country_modifier = honour_pole
			}
		}	
	}

	mean_time_to_happen = {
		months = 400
	}
	
	option = {
		name = "native_americans.31.a"
		ai_chance = { 
			factor = 50 
			modifier = {
				factor = 0
				NOT = {
					treasury = 50
				}
			}
		}
		add_treasury = -50
		random_ally = {
			limit = {
				NOT = {
					has_country_modifier = honour_pole
				}
			}
			add_country_modifier = {
				name = honour_pole
				duration = 3650
			}
			add_opinion = { 
				who = ROOT 
				modifier = honour_pole
			}
		}
	}
	
	option = {
		name = "native_americans.31.b"
		ai_chance = { 
			factor = 50 
			modifier = {
				factor = 0
				treasury = 50
			}
		}
	}
}

# Honor Pole (ROOT)
country_event = {
	id = native_americans.32
	title = "native_americans.32.t"
	desc = "native_americans.32.d"
	picture = GOOD_WITH_MONARCH_eventPicture

	trigger = {
		has_dlc = "Conquest of Paradise"
		government = native
		OR = {
			primary_culture = athabascan
			primary_culture = chinook
			primary_culture = haida
			primary_culture = salish
		}	
		NOT = { 
			has_country_modifier = honour_pole
		}	
	}

	mean_time_to_happen = {
		months = 400
	}

	option = {
		name = "native_americans.32.a"
		ai_chance = { 
			factor = 50 
			modifier = {
				factor = 0
				NOT = {
					treasury = 100
				}
			}
		}
		add_treasury = -100
		add_country_modifier = {
			name = "honour_pole"
			duration = 3650
		}
	}
	
	option = {
		name = "native_americans.32.b"
		ai_chance = { 
			factor = 50 
			modifier = {
				factor = 0
				treasury = 100
			}
		}
	}
}

# Events specific for Plains Americans

# Lost Animals
country_event = {
	id = native_americans.33
	title = "native_americans.33.t"
	desc = {
		trigger = {
			NOT = {
				mil_tech = 6
			}
		}
		desc = "native_americans.33.d1"
	}
	desc = {
		trigger = {
			mil_tech = 6
		}
		desc = "native_americans.33.d2"
	}
	picture = ACCUSATION_eventPicture

	trigger = {
		has_dlc = "Conquest of Paradise"
		government = native
		OR = {
			culture_group = caddoan
			culture_group = plains_algonquian
			culture_group = siouan
			primary_culture = chipewyan
			primary_culture = kiowa
			primary_culture = shoshone
		}
		NOT = {
			mil_tech = 6
		}
		NOT = { 
			OR = {
				has_country_modifier = travois_no_dogs
				has_country_modifier = travois_no_horses
			}
		}	
	}

	mean_time_to_happen = {
		months = 400
	}
	
	option = {
		name = "native_americans.33.a"
		ai_chance = { 
			factor = 50 
			modifier = {
				factor = 0
				NOT = {
					treasury = 50
				}
			}
		}	
		add_treasury = -50
	}

	option = {
		name = "native_americans.33.b"
		ai_chance = { 
			factor = 50 
			modifier = {
				factor = 2
				NOT = {
					treasury = 50
				}
			}
		}
		if = {
			limit = {
				mil_tech = 6
			}
			add_country_modifier = {
				name = "travois_no_horses"
				duration = 365
			}
		}
		else = {
			add_country_modifier = {
				name = "travois_no_dogs"
				duration = 365
			}
		}
	}
}

# The Flight of the Eagle
country_event = {
	id = native_americans.34
	title = "native_americans.34.t"
	desc = "native_americans.34.d"
	
	picture = STREET_SPEECH_eventPicture

	trigger = {
		has_dlc = "Conquest of Paradise"
		government = native
		OR = {
			culture_group = caddoan
			culture_group = plains_algonquian
			culture_group = siouan
			primary_culture = chipewyan
			primary_culture = kiowa
			primary_culture = shoshone
		}
	}

	mean_time_to_happen = {
		months = 400
	}
	
	option = {
		name = "native_americans.34.a"
		ai_chance = { 
			factor = 50 
			modifier = {
				factor = 0
				NOT = {
					treasury = 50
				}
			}
		}	
		add_treasury = -50
	}

	option = {
		name = "native_americans.34.b"
		ai_chance = { 
			factor = 50 
			modifier = {
				factor = 2
				NOT = {
					treasury = 50
				}
			}
		}
		add_stability = -1
	}
}

# Bisons Are Breeding
country_event = {
	id = native_americans.35
	title = "native_americans.35.t"
	desc = "native_americans.35.d"
	
	picture = NATIVES_eventPicture

	trigger = {
		has_dlc = "Conquest of Paradise"
		government = native
		OR = {
			culture_group = caddoan
			culture_group = plains_algonquian
			culture_group = siouan
			primary_culture = chipewyan
			primary_culture = kiowa
			primary_culture = shoshone
		}
		mil_tech = 6
	}

	mean_time_to_happen = {
		months = 400
	}

	option = {
		name = "native_americans.35.a"
		add_stability = 1
	}
}

# Hide Painting
country_event = {
	id = native_americans.36
	title = "native_americans.36.t"
	desc = "native_americans.36.d"
	
	picture = ECONOMY_eventPicture

	trigger = {
		has_dlc = "Conquest of Paradise"
		government = native
		OR = {
			culture_group = caddoan
			culture_group = plains_algonquian
			culture_group = siouan
			primary_culture = chipewyan
			primary_culture = kiowa
			primary_culture = shoshone
		}
	}

	mean_time_to_happen = {
		months = 400
	}

	option = {
		name = "native_americans.36.a"
		add_treasury = 50
	}
}

# Peace in the Plains
country_event = {
	id = native_americans.37
	title = "native_americans.37.t"
	desc = "native_americans.37.d"
	
	picture = DIPLOMACY_eventPicture

	trigger = {
		has_dlc = "Conquest of Paradise"
		government = native
		OR = {
			culture_group = caddoan
			culture_group = plains_algonquian
			culture_group = siouan
			primary_culture = chipewyan
			primary_culture = kiowa
			primary_culture = shoshone
		}
	}

	mean_time_to_happen = {
		months = 400
	}

	option = {
		name = "native_americans.37.a"
		ai_chance = { 
			factor = 50 
			modifier = {
				factor = 2
				treasury = 50
			}
		}
		add_treasury = -50
		random_known_country = {
			limit = {
				OR = {
					culture_group = caddoan
					culture_group = plains_algonquian
					culture_group = siouan
					primary_culture = chipewyan
					primary_culture = kiowa
					primary_culture = shoshone
				}
			}
			add_opinion = {
				who = FROM
				modifier = successful_diplomacy
			}
		}
	}
	
	option = {
		name = "native_americans.37.b"
		ai_chance = { 
			factor = 50 
			modifier = {
				factor = 2
				NOT = {
					treasury = 50
				}
			}
		}
		random_known_country = {
			limit = {
				OR = {
					culture_group = caddoan
					culture_group = plains_algonquian
					culture_group = siouan
					primary_culture = chipewyan
					primary_culture = kiowa
					primary_culture = shoshone
				}
			}
			add_casus_belli = {
				target = FROM
				type = cb_insult
				months = 12
			}
		}
	}
}

# Events specific for California Americans

# Acorns Are Scarce
country_event = {
	id = native_americans.38
	title = "native_americans.38.t"
	desc = "native_americans.38.d"
	
	picture = PLAGUE_eventPicture

	trigger = {
		has_dlc = "Conquest of Paradise"
		government = native
		primary_culture = yokuts
	}

	mean_time_to_happen = {
		months = 400
	}

	option = {
		name = "native_americans.38.a"
		add_stability = -1
	}
}

# Rock Art
country_event = {
	id = native_americans.39
	title = "native_americans.39.t"
	desc = "native_americans.39.d"
	
	picture = ARTWORK_eventPicture

	trigger = {
		has_dlc = "Conquest of Paradise"
		government = native
		primary_culture = yokuts
	}

	mean_time_to_happen = {
		months = 400
	}

	option = {
		name = "native_americans.39.a"
		ai_chance = { 
			factor = 50 
			modifier = {
				factor = 0
				NOT = {
					treasury = 50
				}
			}
		}
		add_treasury = -50
		add_stability = 1
	}
	
	option = {
		name = "native_americans.39.b"
		ai_chance = { 
			factor = 50 
			modifier = {
				factor = 0
				treasury = 50
			}
		}
	}
}

# The Kutsu Cult
country_event = {
	id = native_americans.40
	title = "native_americans.40.t"
	desc = "native_americans.40.d"
	picture = RELIGION_eventPicture

	trigger = {
		has_dlc = "Conquest of Paradise"
		government = native
		is_at_war = no
		primary_culture = yokuts
	}

	mean_time_to_happen = {
		months = 120
	}

	option = {
		name = "native_americans.40.a"
		add_manpower = -3
		add_treasury = -20
		add_prestige = 5
		add_stability_or_adm_power = yes
	}

	option = {
		name = "native_americans.40.b"
		add_prestige = -5
	}
}

# Baskets Are Sold
country_event = {
	id = native_americans.41
	title = "native_americans.41.t"
	desc = "native_americans.41.d"
	
	picture = MERCHANTS_TALKING_eventPicture

	trigger = {
		has_dlc = "Conquest of Paradise"
		government = native
		OR = {
			culture_group = caddoan
			culture_group = plains_algonquian
			culture_group = siouan
			primary_culture = chipewyan
			primary_culture = kiowa
			primary_culture = shoshone
		}
	}

	mean_time_to_happen = {
		months = 400
	}

	option = {
		name = "native_americans.41.a"
		add_treasury = 50
		add_prestige = 5
	}
}